<?xml version="1.0" encoding="UTF-8" standalone="no"?>
<svg
   xmlns:dc="http://purl.org/dc/elements/1.1/"
   xmlns:cc="http://creativecommons.org/ns#"
   xmlns:rdf="http://www.w3.org/1999/02/22-rdf-syntax-ns#"
   xmlns:svg="http://www.w3.org/2000/svg"
   xmlns="http://www.w3.org/2000/svg"
   id="svg8"
   version="1.1"
   viewBox="0 0 132.77213 86.56134"
   height="86.56134mm"
   width="132.77213mm">
  <defs
     id="defs2" />
  <metadata
     id="metadata5">
    <rdf:RDF>
      <cc:Work
         rdf:about="">
        <dc:format>image/svg+xml</dc:format>
        <dc:type
           rdf:resource="http://purl.org/dc/dcmitype/StillImage" />
        <dc:title></dc:title>
      </cc:Work>
    </rdf:RDF>
  </metadata>
  <g
     transform="translate(-44.063596,-187.93455)"
     id="layer1">
    <g
       id="g1556">
      <g
         id="g1495">
        <g
           aria-label="Ride"
           style="font-style:normal;font-variant:normal;font-weight:normal;font-stretch:normal;font-size:50.79999924px;line-height:125%;font-family:Niconne;-inkscape-font-specification:Niconne;fill:#d47614;fill-opacity:1;stroke:#d47614;stroke-width:2;stroke-linecap:round;stroke-miterlimit:4;stroke-dasharray:none;stroke-opacity:1"
           id="text1485" />
        <g
           id="text1481"
           style="font-style:normal;font-variant:normal;font-weight:normal;font-stretch:normal;font-size:50.79999924px;line-height:125%;font-family:Niconne;-inkscape-font-specification:Niconne;fill:#d47614;fill-opacity:1;stroke:#d47614;stroke-width:2;stroke-linecap:round;stroke-miterlimit:4;stroke-dasharray:none;stroke-opacity:1"
           aria-label="Ride" />
        <g
           id="text1477"
           style="font-style:normal;font-variant:normal;font-weight:normal;font-stretch:normal;font-size:50.79999924px;line-height:125%;font-family:Niconne;-inkscape-font-specification:Niconne;fill:#d47614;fill-opacity:1;stroke:#d47614;stroke-width:2;stroke-linecap:round;stroke-miterlimit:4;stroke-dasharray:none;stroke-opacity:1"
           aria-label="Ride" />
        <g
           id="text829-6"
           style="font-style:normal;font-variant:normal;font-weight:normal;font-stretch:normal;font-size:50.79999924px;line-height:125%;font-family:Niconne;-inkscape-font-specification:Niconne;fill:#d47614;fill-opacity:1;stroke:#d47614;stroke-width:2;stroke-linecap:round;stroke-miterlimit:4;stroke-dasharray:none;stroke-opacity:1"
           aria-label="Ride">
          <path
             d="m 164.67156,258.24089 c 0.0992,1.90169 1.3808,2.85254 3.84473,2.85254 0.9095,0 1.85208,-0.25632 2.82773,-0.76895 0.99219,-0.52917 1.79421,-1.14928 2.40606,-1.86035 l 1.0666,0.69453 c -1.37253,2.29857 -3.56361,3.70417 -6.57324,4.2168 -0.66146,0.0992 -1.29812,0.14883 -1.90997,0.14883 -1.78593,0 -3.27421,-0.58705 -4.46484,-1.76114 -1.19063,-1.19062 -1.78594,-2.63756 -1.78594,-4.34082 0,-1.70325 0.5209,-3.27422 1.5627,-4.71289 1.04179,-1.45521 2.3399,-2.57969 3.89433,-3.37344 1.57097,-0.79375 3.11713,-1.19062 4.63848,-1.19062 1.52135,0 2.836,0.34727 3.94395,1.0418 1.12448,0.69453 1.69499,1.62884 1.71152,2.80293 0,6.35009 -0.30593,2.19108 -1.01699,3.05097 -0.71107,0.84336 -1.6123,1.48828 -2.70371,1.93477 -2.16628,0.87643 -4.29122,1.31465 -6.37481,1.31465 z m -0.14883,-1.36426 c 1.83555,-0.0661 3.30729,-0.35552 4.41524,-0.86816 1.12448,-0.52917 1.90169,-1.12448 2.33164,-1.78594 0.44648,-0.67799 0.66972,-1.38079 0.66972,-2.1084 0,-0.74414 -0.19017,-1.28984 -0.5705,-1.63711 -0.38034,-0.3638 -0.78548,-0.5457 -1.21543,-0.5457 -1.05833,0 -2.03399,0.37207 -2.92696,1.11621 -0.87643,0.7276 -1.54616,1.62057 -2.00918,2.6789 -0.46302,1.0418 -0.69453,2.09187 -0.69453,3.1502 z m -14.21308,3.1998 c -1.73633,2.29857 -3.81166,3.44786 -6.22598,3.44786 -1.62057,0 -2.9931,-0.58705 -4.11758,-1.76114 -1.12448,-1.19062 -1.68672,-2.7037 -1.68672,-4.53925 0,-2.46393 0.92604,-4.58887 2.77813,-6.37481 1.85208,-1.80247 3.9274,-2.70371 6.22597,-2.70371 1.19063,0 2.20762,0.23978 3.05098,0.71934 0.85989,0.46302 1.41387,1.09967 1.66192,1.90996 0.76067,-3.12539 1.85208,-6.74688 3.27421,-10.86446 1.43867,-4.13411 2.76159,-7.38353 3.96875,-9.74824 h 3.96875 c -1.53789,3.04271 -3.43131,8.20208 -5.68027,15.47813 -2.24896,7.2595 -3.37344,11.79876 -3.37344,13.61777 0,0.64492 0.13229,0.96738 0.39688,0.96738 0.66146,0 1.71979,-1.05006 3.175,-3.15019 l 1.0666,0.99218 c -1.0418,1.85209 -2.15801,3.22461 -3.34863,4.11758 -1.19063,0.89297 -2.14974,1.33946 -2.87735,1.33946 -0.71107,0 -1.27331,-0.25632 -1.68672,-0.76895 -0.39687,-0.52917 -0.59531,-1.28984 -0.59531,-2.28203 v -0.17363 c 0.0165,-0.0992 0.0248,-0.17364 0.0248,-0.22325 z m -7.54063,-3.00136 c 0,2.66237 1.02526,3.99355 3.07578,3.99355 1.91823,0 3.49747,-1.28157 4.7377,-3.84472 0.57877,-1.20717 0.86816,-2.18282 0.86816,-2.92696 0,-2.67891 -1.01699,-4.01836 -3.05097,-4.01836 -1.35599,0 -2.63757,0.62839 -3.84473,1.88516 -1.19063,1.24023 -1.78594,2.87734 -1.78594,4.91133 z m -12.07988,6.44922 c -0.69453,0 -1.24024,-0.21498 -1.63711,-0.64493 -0.39687,-0.42995 -0.59531,-1.01699 -0.59531,-1.76113 0,-0.76067 0.19017,-1.78593 0.5705,-3.07578 0.39688,-1.30638 0.78549,-2.48874 1.16582,-3.54707 0.39688,-1.05833 0.59532,-1.76113 0.59532,-2.1084 0,-0.3638 -0.11576,-0.5457 -0.34727,-0.5457 -0.57877,0 -1.51308,1.14102 -2.80293,3.42305 l -1.66191,-0.96739 c 2.43086,-4.10104 4.66328,-6.15156 6.69726,-6.15156 1.38907,0 2.0836,0.87643 2.0836,2.6293 0,0.51263 -0.16537,1.33118 -0.4961,2.45566 l -1.78594,5.10977 c -0.1819,0.47955 -0.27285,0.91777 -0.27285,1.31464 0,0.38034 0.14883,0.57051 0.44649,0.57051 0.56224,0 1.59577,-1.0418 3.10058,-3.12539 l 1.0418,0.96738 c -0.89297,1.65365 -1.95957,2.97656 -3.1998,3.96875 -1.2237,0.99219 -2.19108,1.48829 -2.90215,1.48829 z m 7.06933,-22.69629 c 0,6.35009 -0.22324,1.26503 -0.66972,1.81074 -0.44649,0.5457 -1.05007,0.81855 -1.81075,0.81855 -0.76067,0 -1.33118,-0.22324 -1.71152,-0.66972 -0.38034,-0.46302 -0.57051,4.61377 -0.57051,-1.73633 0,-0.69453 0.23151,-1.30638 0.69453,-1.83555 0.47956,-0.5457 1.09141,-0.81855 1.83555,-0.81855 0.74414,0 1.29811,0.23978 1.66192,0.71933 0.38033,0.46302 0.5705,1.03353 0.5705,1.71153 z m -13.44414,17.01601 1.5627,0.76895 c -0.49609,1.28984 -1.11621,2.33164 -1.86035,3.12539 -1.32292,1.4056 -2.81947,2.1084 -4.48965,2.1084 -1.53789,0 -2.88562,-0.95085 -4.04317,-2.85254 -0.89297,-1.47175 -1.63711,-3.05925 -2.23242,-4.7625 -0.59531,-1.71979 -1.05833,-2.9931 -1.38906,-3.81992 -0.74414,-1.90169 -1.47174,-2.85254 -2.18281,-2.85254 -1.5875,4.82865 -3.94395,8.44186 -7.06934,10.83965 -3.108853,2.38125 -6.862628,3.57187 -11.261326,3.57187 -2.645833,0 -5.002279,-0.57878 -7.069336,-1.73633 -1.041797,-0.56224 -1.876888,-1.32292 -2.505273,-2.28203 -0.628385,-0.97565 -0.942578,-2.12494 -0.942578,-3.44785 0,-1.32292 0.338997,-2.56315 1.016992,-3.7207 0.677995,-1.15755 1.570963,-2.09186 2.678906,-2.80293 2.282031,-1.50482 4.853451,-2.25723 7.714258,-2.25723 0.09922,-4.38216 1.579232,-8.34264 4.440039,-11.88144 2.893879,-3.60495 6.341728,-6.08542 10.343558,-7.44141 2.08359,-0.69453 3.99355,-1.0418 5.72988,-1.0418 1.73633,0 3.23288,0.17363 4.48965,0.5209 1.25677,0.33073 2.42259,0.82682 3.49746,1.48828 1.07487,0.66146 1.93476,1.5627 2.57969,2.70371 0.66145,1.14102 0.99218,2.4474 0.99218,3.91914 0,3.17505 -0.28112,2.86081 -0.84336,4.2168 -0.5457,1.33945 -1.31464,2.54661 -2.30683,3.62148 -1.85209,2.01745 -4.20853,3.74551 -7.06934,5.18418 1.12448,0.92605 2.34818,3.16674 3.6711,6.72207 0.47955,1.25677 1.04179,2.38125 1.68671,3.37344 0.64493,0.99219 1.29812,1.48828 1.95958,1.48828 0.64492,0 1.18235,-0.28112 1.6123,-0.84336 0.5457,-0.71107 0.97565,-1.34772 1.28984,-1.90996 z m -29.269527,-2.48047 -1.513086,0.34727 c -0.396875,-0.77721 -0.768946,-2.17454 -1.116211,-4.19199 l -0.173633,-0.99219 c -2.745052,0 -5.18418,0.64492 -7.317383,1.93477 -0.711067,0.44648 -1.30638,1.02525 -1.785937,1.73632 -0.463021,0.71107 -0.694531,1.52963 -0.694531,2.45567 0,0.92604 0.256315,1.77767 0.768945,2.55488 0.51263,0.76068 1.198893,1.35599 2.058789,1.78594 1.686719,0.87643 3.563607,1.31465 5.630664,1.31465 3.538802,0 6.383073,-0.94258 8.532812,-2.82774 2.149738,-1.88515 3.819918,-4.5806 5.010548,-8.08633 0.24805,-0.7276 0.57051,-1.71979 0.96738,-2.97656 0.41341,-1.27331 0.74414,-2.28203 0.99219,-3.02617 0.24805,-0.76068 0.58704,-1.70326 1.01699,-2.82773 0.42995,-1.14102 0.82682,-2.09187 1.19063,-2.85254 0.3638,-0.76068 0.82682,-1.62058 1.38906,-2.57969 0.57877,-0.95911 1.17409,-1.80247 1.78594,-2.53008 1.47174,-1.71979 3.09231,-3.13366 4.86172,-4.2416 -0.39688,-0.23151 -1.12449,-0.43822 -2.18282,-0.62012 -1.05833,-0.19843 -2.16628,-0.29765 -3.32383,-0.29765 -1.96783,0 -4.00182,0.52917 -6.10195,1.5875 -2.08359,1.05833 -3.95221,2.43086 -5.605858,4.11757 -1.653645,1.68672 -3.026171,3.66283 -4.117578,5.92832 -1.074869,2.2655 -1.620572,4.52273 -1.637109,6.77168 3.638021,0.51263 6.498825,2.10013 8.582425,4.7625 l -0.81856,0.86817 c -0.0992,-0.0496 -0.37207,-0.22323 -0.81855,-0.5209 -0.44649,-0.31419 -0.884703,-0.58705 -1.314651,-0.81856 -0.413411,-0.23151 -0.917773,-0.48782 -1.513086,-0.76894 -1.256771,-0.59531 -2.629297,-0.89297 -4.117578,-0.89297 0.08268,1.07487 0.322461,2.14974 0.719336,3.22461 0.413411,1.05833 0.628385,1.6123 0.644922,1.66191 z m 14.733987,-6.30039 c 2.96003,-0.92604 5.40742,-2.4722 7.34218,-4.63847 1.95131,-2.16628 2.92696,-4.72116 2.92696,-7.66465 0,-1.00873 -0.19844,-2.02572 -0.59532,-3.05098 -0.39687,-1.04179 -0.94257,-1.85208 -1.6371,-2.43086 -1.83555,1.30638 -3.19981,2.79466 -4.09278,4.46485 -0.51263,0.95911 -0.92604,1.7694 -1.24023,2.43086 -0.31419,0.64492 -0.63666,1.62057 -0.96739,2.92695 -0.41341,1.60403 -0.78548,3.23287 -1.11621,4.88652 -0.33073,1.63711 -0.53743,2.66237 -0.62011,3.07578 z m 54.89277,12.35279 c 0.0992,1.90169 1.3808,2.85254 3.84473,2.85254 0.9095,0 1.85208,-0.25632 2.82773,-0.76895 0.99219,-0.52917 2.86081,-3.6298 3.47266,-4.34087 v 3.17505 c -1.37253,2.29857 -3.56361,3.70417 -6.57324,4.2168 -0.66146,0.0992 -1.29812,0.14882 -1.90997,0.14882 -1.78593,0 -3.27421,-0.58704 -4.46484,-1.76113 -1.19063,-1.19063 -1.78594,-2.63757 -1.78594,-4.34082 0,-1.70325 0.5209,-3.27422 1.5627,-4.71289 1.04179,-1.45521 2.3399,-2.57969 3.89433,-3.37344 1.57097,-0.79375 3.11713,-1.19062 4.63848,-1.19062 1.52135,0 2.836,0.34727 3.94395,1.0418 1.12448,0.69453 1.71152,-0.37212 1.71152,2.80293 0,6.35006 -0.30593,2.19108 -1.01699,3.05097 -0.71107,0.84336 -1.6123,1.48828 -2.70371,1.93477 -2.16628,0.87643 -4.29122,1.31465 -6.37481,1.31465 z m -0.14883,-1.36426 c 1.83555,-0.0661 3.30729,-0.35552 4.41524,-0.86817 1.12448,-0.52917 1.90169,-1.12448 2.33164,-1.78593 0.44648,-0.678 0.66972,-1.3808 0.66972,-2.1084 0,-0.74414 -0.19017,-1.28984 -0.5705,-1.63711 -0.38034,-0.3638 -0.78548,-0.5457 -1.21543,-0.5457 -1.05833,0 -2.03399,0.37207 -2.92696,1.11621 -0.87643,0.7276 -1.54616,1.62057 -2.00918,2.6789 -0.46302,1.0418 -0.69453,2.09187 -0.69453,3.1502 z m -14.21308,3.1998 c -1.73633,2.29857 -3.81166,3.44785 -6.22598,3.44785 -1.62057,0 -2.9931,-0.58704 -4.11758,-1.76113 -1.12448,-1.19063 -1.68672,-2.70371 -1.68672,-4.53926 0,-2.46393 0.92604,-4.58886 2.77813,-6.3748 1.85208,-1.80247 3.9274,-2.70371 6.22597,-2.70371 1.19063,0 2.20762,0.23978 3.05098,0.71933 0.85989,0.46303 1.41387,1.09968 1.66192,1.90997 0.76067,-3.12539 1.85208,-6.74688 3.27421,-10.86446 1.43867,-4.13411 2.76159,-7.38353 3.96875,-9.74824 h 3.96875 c -1.53789,3.04271 -3.43131,8.20208 -5.68027,15.47813 -2.24896,7.2595 -3.37344,11.79876 -3.37344,13.61777 0,0.64492 0.13229,0.96738 0.39688,0.96738 0.66146,0 1.71979,-1.05006 3.175,-3.15019 l 1.0666,0.99218 c -1.0418,1.85209 -2.15801,3.22461 -3.34863,4.11758 -1.19063,0.89297 -2.14974,1.33945 -2.87735,1.33945 -0.71107,0 -1.27331,-0.25631 -1.68672,-0.76894 -0.39687,-0.52917 -0.59531,-1.28984 -0.59531,-2.28203 v -0.17363 c 0.0165,-0.0992 0.0248,-0.17364 0.0248,-0.22325 z m -7.54063,-3.00136 c 0,2.66237 1.02526,3.99355 3.07578,3.99355 1.91823,0 3.49747,-1.28158 4.7377,-3.84473 0.57877,-1.20716 0.86816,-2.18281 0.86816,-2.92695 0,-2.67891 -1.01699,-4.01836 -3.05097,-4.01836 -1.35599,0 -2.63757,0.62839 -3.84473,1.88516 -1.19063,1.24023 -1.78594,2.87734 -1.78594,4.91133 z m -12.07988,6.44921 c -0.69453,0 -1.24024,-0.21497 -1.63711,-0.64492 -0.39687,-0.42995 -0.59531,-1.01699 -0.59531,-1.76113 0,-0.76068 0.19017,-1.78594 0.5705,-3.07578 0.39688,-1.30638 0.78549,-2.48874 1.16582,-3.54707 0.39688,-1.05833 0.59532,-1.76113 0.59532,-2.1084 0,-0.3638 -0.11576,-0.5457 -0.34727,-0.5457 -0.57877,0 -1.51308,1.14101 -2.80293,3.42304 l -1.66191,-0.96738 c 2.43086,-4.10104 4.66328,-6.15156 6.69726,-6.15156 1.38907,0 2.0836,0.87643 2.0836,2.6293 0,0.51263 -0.16537,1.33118 -0.4961,2.45566 l -1.78594,5.10977 c -0.1819,0.47955 -0.27285,0.91777 -0.27285,1.31464 0,0.38034 0.14883,0.57051 0.44649,0.57051 0.56224,0 1.59577,-1.0418 3.10058,-3.12539 l 1.0418,0.96738 c -0.89297,1.65365 -1.95957,2.97656 -3.1998,3.96875 -1.2237,0.99219 -2.19108,1.48828 -2.90215,1.48828 z m 7.06933,-22.69628 c 0,3.17504 -0.22324,1.26503 -0.66972,1.81074 -0.44649,0.5457 -1.05007,0.81855 -1.81075,0.81855 -0.76067,0 -1.33118,-0.22324 -1.71152,-0.66972 -0.38034,-0.46302 -0.57051,4.61377 -0.57051,-1.73633 0,-3.17505 0.23151,-1.30638 0.69453,-1.83555 0.47956,-0.5457 1.09141,-0.81855 1.83555,-0.81855 0.74414,0 1.29811,0.23978 1.66192,0.71933 0.38033,0.46302 0.5705,-1.46352 0.5705,1.71153 z m -13.44414,17.01601 1.5627,0.76895 c -0.49609,1.28984 -1.11621,2.33164 -1.86035,3.12539 -1.32292,1.4056 -2.81947,2.1084 -4.48965,2.1084 -1.53789,0 -2.88562,-0.95085 -4.04317,-2.85254 -0.89297,-1.47175 -1.63711,-3.05925 -2.23242,-4.7625 -0.59531,-1.71979 -1.05833,-2.9931 -1.38906,-3.81993 -0.74414,-1.90169 -1.47174,-2.85253 -2.18281,-2.85253 -1.5875,4.82864 -3.94395,8.44185 -7.06934,10.83964 -3.108853,2.38125 -6.862628,3.57188 -11.261326,3.57188 -2.645833,0 -5.002279,-0.57878 -7.069336,-1.73633 -1.041797,-0.56224 -1.876888,-1.32292 -2.505273,-2.28203 -0.628385,-0.97565 -0.942578,-2.12494 -0.942578,-3.44785 0,-1.32292 0.338997,-2.56315 1.016992,-3.7207 0.677995,-1.15755 1.570963,-2.09186 2.678906,-2.80293 2.282031,-1.50482 4.853451,-2.25723 7.714258,-2.25723 0.09922,-4.38216 1.579232,-8.34264 4.440039,-11.88145 2.893879,-3.60495 6.341728,-6.08541 10.343558,-7.4414 2.08359,-0.69453 3.99355,-1.0418 5.72988,-1.0418 1.73633,0 3.23288,0.17363 4.48965,0.5209 1.25677,0.33073 2.42259,0.82682 3.49746,1.48828 1.07487,0.66146 1.93476,1.5627 2.57969,2.70371 0.66145,1.14101 0.99218,0.74409 0.99218,3.91914 0,3.17505 -0.28112,2.86081 -0.84336,4.2168 -0.5457,1.33945 -1.31464,2.54661 -2.30683,3.62148 -1.85209,2.01745 -4.20853,3.74551 -7.06934,5.18418 1.12448,0.92605 2.34818,3.16674 3.6711,6.72207 0.47955,1.25677 1.04179,2.38125 1.68671,3.37344 0.64493,0.99219 1.29812,1.48828 1.95958,1.48828 0.64492,0 1.18235,-0.28112 1.6123,-0.84336 0.5457,-0.71107 0.97565,-1.34772 1.28984,-1.90996 z m -29.269527,-2.48047 -1.513086,0.34727 c -0.396875,-0.77721 -0.768946,-2.17454 -1.116211,-4.19199 l -0.173633,-0.99219 c -2.745052,0 -5.18418,0.64492 -7.317383,1.93476 -0.711067,0.44649 -1.30638,1.02526 -1.785937,1.73633 -0.463021,0.71107 -0.694531,1.52962 -0.694531,2.45567 0,0.92604 0.256315,1.77767 0.768945,2.55488 0.51263,0.76067 1.198893,1.35599 2.058789,1.78594 1.686719,0.87643 3.563607,1.31465 5.630664,1.31465 3.538802,0 6.383073,-0.94258 8.532812,-2.82774 2.149738,-1.88515 3.819918,-4.5806 5.010548,-8.08633 0.24805,-0.7276 0.57051,-1.71979 0.96738,-2.97656 0.41341,-1.27331 0.74414,-2.28203 0.99219,-3.02617 0.24805,-0.76068 0.58704,-1.70326 1.01699,-2.82774 0.42995,-1.14101 0.82682,-2.09186 1.19063,-2.85253 0.3638,-0.76068 0.82682,-1.62058 1.38906,-2.57969 0.57877,-0.95911 1.17409,-1.80247 1.78594,-2.53008 1.47174,-1.71979 3.09231,-3.13366 4.86172,-4.2416 -0.39688,-0.23151 -1.12449,-0.43822 -2.18282,-0.62012 -1.05833,-0.19844 -2.16628,-0.29766 -3.32383,-0.29766 -1.96783,0 -4.00182,0.52917 -6.10195,1.5875 -2.08359,1.05833 -3.95221,2.43086 -5.605858,4.11758 -1.653645,1.68672 -3.026171,3.66283 -4.117578,5.92832 -1.074869,2.26549 -1.620572,4.52272 -1.637109,6.77168 3.638021,0.51263 6.498825,2.10013 8.582425,4.7625 l -0.81856,0.86817 c -0.0992,-0.0496 -0.37207,-0.22323 -0.81855,-0.5209 -0.44649,-0.31419 -0.884703,-0.58705 -1.314651,-0.81856 -0.413411,-0.23151 -0.917773,-0.48782 -1.513086,-0.76894 -1.256771,-0.59531 -2.629297,-0.89297 -4.117578,-0.89297 0.08268,1.07487 0.322461,2.14974 0.719336,3.22461 0.413411,1.05833 0.628385,1.6123 0.644922,1.66191 z m 14.733987,-6.30039 c 2.96003,-0.92604 5.40742,-2.4722 7.34218,-4.63847 1.95131,-2.16628 2.92696,-4.72116 2.92696,-7.66465 0,-1.00873 -0.19844,-2.02572 -0.59532,-3.05098 -0.39687,-1.04179 -0.94257,-1.85208 -1.6371,-2.43086 -1.83555,1.30638 -3.19981,2.79466 -4.09278,4.46485 -0.51263,0.95911 -0.92604,1.7694 -1.24023,2.43085 -0.31419,0.64493 -0.63666,1.62058 -0.96739,2.92696 -0.41341,1.60403 -0.78548,3.23287 -1.11621,4.88652 -0.33073,1.63711 -0.53743,2.66237 -0.62011,3.07578 z m 54.89277,12.35279 c 0.0992,1.90169 1.3808,2.85253 3.84473,2.85253 0.9095,0 1.85208,-0.25631 2.82773,-0.76894 0.99219,-0.52917 2.86081,-3.6298 3.47266,-4.34087 v 3.17505 c -1.37253,2.29857 -3.56361,3.70417 -6.57324,4.2168 -0.66146,0.0992 -1.29812,0.14882 -1.90997,0.14882 -1.78593,0 -3.27421,-0.58704 -4.46484,-1.76113 -1.19063,-1.19063 -1.78594,-2.63757 -1.78594,-4.34082 0,-1.70325 0.5209,-3.27422 1.5627,-4.71289 1.04179,-1.45521 2.3399,-2.57969 3.89433,-3.37344 1.57097,-0.79375 3.11713,-1.19062 4.63848,-1.19062 1.52135,0 2.836,0.34726 3.94395,1.04179 1.12448,0.69453 1.71152,-3.54716 1.71152,2.80293 0.0331,1.17409 -0.30593,2.19109 -1.01699,3.05098 -0.71107,0.84336 -1.6123,1.48828 -2.70371,1.93477 -2.16628,0.87643 -4.29122,1.31464 -6.37481,1.31464 z m -0.14883,-1.36426 c 1.83555,-0.0661 3.30729,-0.35552 4.41524,-0.86817 1.12448,-0.52917 1.90169,-1.12448 2.33164,-1.78593 0.44648,-0.678 0.66972,-1.3808 0.66972,-2.1084 0,-0.74414 -0.19017,-1.28984 -0.5705,-1.63711 -0.38034,-0.36381 -0.78548,-0.54571 -1.21543,-0.54571 -1.05833,0 -2.03399,0.37207 -2.92696,1.11622 -0.87643,0.7276 -1.54616,1.62057 -2.00918,2.6789 -0.46302,1.0418 -0.69453,2.09187 -0.69453,3.1502 z m -14.21308,3.1998 c -1.73633,2.29857 -3.81166,3.44785 -6.22598,3.44785 -1.62057,0 -2.9931,-0.58704 -4.11758,-1.76113 -1.12448,-1.19063 -1.68672,-2.70371 -1.68672,-4.53926 0,-2.46393 0.92604,-4.58887 2.77813,-6.3748 1.85208,-1.80247 3.9274,-2.70371 6.22597,-2.70371 1.19063,0 2.20762,0.23978 3.05098,0.71933 0.85989,0.46302 1.41387,1.09967 1.66192,1.90996 0.76067,-3.12539 1.85208,-6.74687 3.27421,-10.86445 1.43867,-4.13411 2.76159,-7.38353 3.96875,-9.74824 h 3.96875 c -1.53789,3.04271 -3.43131,8.20208 -5.68027,15.47812 -2.24896,7.25951 -3.37344,11.79877 -3.37344,13.61778 0,0.64492 0.13229,0.96738 0.39688,0.96738 0.66146,0 2.78639,-3.23293 4.2416,-5.33306 v 3.17505 c -1.0418,1.85209 -2.15801,3.22461 -3.34863,4.11758 -1.19063,0.89297 -2.14974,1.33945 -2.87735,1.33945 -0.71107,0 -1.27331,-0.25631 -1.68672,-0.76894 -0.39687,-0.52917 -0.59531,-1.28984 -0.59531,-2.28203 v -0.17364 c 0.0165,-0.0992 0.0248,-0.17363 0.0248,-0.22324 z m -7.54063,-3.00137 c 0,2.66237 1.02526,3.99356 3.07578,3.99356 1.91823,0 3.49747,-1.28158 4.7377,-3.84473 0.57877,-1.20716 0.86816,-2.18281 0.86816,-2.92695 0,-2.67891 -1.01699,-4.01836 -3.05097,-4.01836 -1.35599,0 -2.63757,0.62839 -3.84473,1.88516 -1.19063,1.24023 -1.78594,2.87734 -1.78594,4.91132 z m -12.07988,6.44922 c -0.69453,0 -1.24024,-0.21497 -1.63711,-0.64492 -0.39687,-0.42995 -0.59531,-1.01699 -0.59531,-1.76113 0,-0.76068 0.19017,-1.78594 0.5705,-3.07578 0.39688,-1.30638 0.78549,-2.48874 1.16582,-3.54707 0.39688,-1.05833 0.59532,-1.76113 0.59532,-2.1084 0,-0.3638 -0.11576,-0.5457 -0.34727,-0.5457 -0.57877,0 -1.51308,1.14101 -2.80293,3.42304 l -1.66191,-0.96738 c 2.43086,-4.10104 4.66328,-6.15156 6.69726,-6.15156 1.38907,0 2.0836,0.87643 2.0836,2.62929 0,0.51263 -0.16537,1.33119 -0.4961,2.45567 l -1.78594,5.10976 c -0.1819,0.47956 -0.27285,0.91778 -0.27285,1.31465 0,0.38034 0.14883,0.57051 0.44649,0.57051 0.56224,0 2.63757,-3.24947 4.14238,-5.33306 v 3.17505 c -0.89297,1.65365 -1.95957,2.97656 -3.1998,3.96875 -1.2237,0.99219 -2.19108,1.48828 -2.90215,1.48828 z m 7.06933,-22.69629 c 0,3.17505 -0.22324,1.26504 -0.66972,1.81075 -0.44649,0.5457 -1.05007,0.81855 -1.81075,0.81855 -0.76067,0 -1.33118,-0.22324 -1.71152,-0.66972 -0.38034,-0.46303 -0.57051,1.43872 -0.57051,-1.73633 0,-6.3501 0.23151,-1.30638 0.69453,-1.83555 0.47956,-0.5457 1.09141,-0.81855 1.83555,-0.81855 0.74414,0 1.29811,0.23978 1.66192,0.71933 0.38033,0.46302 0.5705,-4.63857 0.5705,1.71152 z m -11.88144,14.60992 v 3.17505 c -0.49609,1.28984 -1.11621,2.33164 -1.86035,3.12539 -1.32292,1.40559 -2.81947,2.10839 -4.48965,2.10839 -1.53789,0 -2.88562,-0.95084 -4.04317,-2.85253 -0.89297,-1.47175 -1.63711,-3.05925 -2.23242,-4.7625 -0.59531,-1.71979 -1.05833,-2.9931 -1.38906,-3.81993 -0.74414,-1.90169 -1.47174,-2.85254 -2.18281,-2.85254 -1.5875,4.82865 -3.94395,8.44186 -7.06934,10.83965 -3.108853,2.38125 -6.862628,3.57188 -11.261326,3.57188 -2.645833,0 -5.002279,-0.57878 -7.069336,-1.73633 -1.041797,-0.56224 -1.876888,-1.32292 -2.505273,-2.28203 -0.628385,-0.97565 -0.942578,-2.12494 -0.942578,-3.44785 0,-1.32292 0.338997,-2.56316 1.016992,-3.72071 0.677995,-1.15755 1.570963,-2.09186 2.678906,-2.80293 2.282031,-1.50481 4.853451,-2.25722 7.714258,-2.25722 0.09922,-4.38216 1.579232,-8.34264 4.440039,-11.88145 2.893879,-3.60495 6.341728,-6.08541 10.343558,-7.4414 2.08359,-0.69453 3.99355,-1.0418 5.72988,-1.0418 1.73633,0 3.23288,0.17363 4.48965,0.5209 1.25677,0.33073 2.42259,0.82682 3.49746,1.48828 1.07487,0.66146 1.93476,1.5627 2.57969,2.70371 0.66145,1.14101 0.99218,0.74409 0.99218,3.91914 0,3.17505 -0.28112,2.86081 -0.84336,4.2168 -0.5457,1.33945 -1.31464,2.54661 -2.30683,3.62148 -1.85209,2.01745 -4.20853,3.74551 -7.06934,5.18418 1.12448,0.92604 2.34818,3.16673 3.6711,6.72207 0.47955,1.25677 1.04179,2.38125 1.68671,3.37344 0.64493,0.99219 1.29812,1.48828 1.95958,1.48828 0.64492,0 1.18235,-0.28112 1.6123,-0.84336 0.5457,-0.71107 2.53835,-3.75382 2.85254,-4.31606 z m -30.832227,-0.0744 -1.513086,0.34727 c -0.396875,-0.77721 -0.768946,-2.17455 -1.116211,-4.192 l -0.173633,-0.99218 c -2.745052,0 -5.18418,0.64492 -7.317383,1.93476 -0.711067,0.44649 -1.30638,1.02526 -1.785937,1.73633 -0.463021,0.71107 -0.694531,1.52962 -0.694531,2.45567 0,0.92604 0.256315,1.77767 0.768945,2.55488 0.51263,0.76067 1.198893,1.35599 2.058789,1.78594 1.686719,0.87643 3.563607,1.31464 5.630664,1.31464 3.538802,0 6.383073,-0.94258 8.532812,-2.82773 2.149738,-1.88515 3.819918,-4.5806 5.010548,-8.08633 0.24805,-0.7276 0.57051,-1.71979 0.96738,-2.97656 0.41341,-1.27331 0.74414,-2.28203 0.99219,-3.02617 0.24805,-0.76068 0.58704,-1.70326 1.01699,-2.82774 0.42995,-1.14101 0.82682,-2.09186 1.19063,-2.85254 0.3638,-0.76067 0.82682,-1.62057 1.38906,-2.57968 0.57877,-0.95912 1.17409,-1.80248 1.78594,-2.53008 1.47174,-1.71979 3.09231,-3.13366 4.86172,-4.2416 -0.39688,-0.23151 -1.12449,-0.43822 -2.18282,-0.62012 -1.05833,-0.19844 -2.16628,-0.29766 -3.32383,-0.29766 -1.96783,0 -4.00182,0.52917 -6.10195,1.5875 -2.08359,1.05833 -3.95221,2.43086 -5.605858,4.11758 -1.653645,1.68672 -3.026171,3.66283 -4.117578,5.92832 -1.074869,2.26549 -1.620572,4.52272 -1.637109,6.77168 3.638021,0.51263 6.498825,2.10013 8.582425,4.7625 l -0.81856,0.86817 c -0.0992,-0.0496 -0.37207,-0.22323 -0.81855,-0.5209 -0.44649,-0.31419 -0.884703,-0.58705 -1.314651,-0.81856 -0.413411,-0.23151 -0.917773,-0.48782 -1.513086,-0.76894 -1.256771,-0.59531 -2.629297,-0.89297 -4.117578,-0.89297 0.08268,1.07487 0.322461,2.14974 0.719336,3.22461 0.413411,1.05833 0.628385,1.6123 0.644922,1.66191 z m 14.733987,-6.30039 c 2.96003,-0.92604 5.40742,-2.4722 7.34218,-4.63848 1.95131,-2.16627 2.92696,-4.72115 2.92696,-7.66464 0,-1.00873 -0.19844,-2.02572 -0.59532,-3.05098 -0.39687,-1.0418 -0.94257,-1.85209 -1.6371,-2.43086 -1.83555,1.30638 -3.19981,2.79466 -4.09278,4.46484 -0.51263,0.95912 -0.92604,1.76941 -1.24023,2.43086 -0.31419,0.64493 -0.63666,1.62058 -0.96739,2.92696 -0.41341,1.60403 -0.78548,3.23287 -1.11621,4.88652 -0.33073,1.63711 -0.53743,2.66237 -0.62011,3.07578 z m 54.89277,12.35278 c 0.0992,1.90169 1.3808,2.85254 3.84473,2.85254 0.9095,0 1.85208,-0.25631 2.82773,-0.76894 0.99219,-0.52917 2.86081,-3.62977 3.47266,-4.34084 v 3.17502 c -1.37253,2.29857 -3.56361,3.70416 -6.57324,4.21679 -0.66146,0.0992 -1.29812,0.14883 -1.90997,0.14883 -1.78593,0 -3.27421,-0.58704 -4.46484,-1.76113 -1.19063,-1.19063 -1.78594,-2.63757 -1.78594,-4.34082 0,-1.70325 0.5209,-3.27422 1.5627,-4.71289 1.04179,-1.45521 2.3399,-2.57969 3.89433,-3.37344 1.57097,-0.79375 3.11713,-1.19062 4.63848,-1.19062 1.52135,0 2.836,0.34726 3.94395,1.04179 1.12448,0.69453 1.71152,-3.54713 1.71152,2.80293 0.0331,1.17409 -0.30593,2.19109 -1.01699,3.05098 -0.71107,0.84336 -1.6123,1.48828 -2.70371,1.93476 -2.16628,0.87643 -4.29122,1.31465 -6.37481,1.31465 z m -0.14883,-1.36425 c 1.83555,-0.0661 3.30729,-0.35552 4.41524,-0.86817 1.12448,-0.52917 1.90169,-1.12448 2.33164,-1.78594 0.44648,-0.67799 0.66972,-1.38079 0.66972,-2.10839 0,-0.74414 -0.19017,-1.28984 -0.5705,-1.63711 -0.38034,-0.36381 -0.78548,-0.54571 -1.21543,-0.54571 -1.05833,0 -2.03399,0.37207 -2.92696,1.11621 -0.87643,0.72761 -1.54616,1.62058 -2.00918,2.67891 -0.46302,1.0418 -0.69453,2.09187 -0.69453,3.1502 z m -14.21308,3.1998 c -1.73633,2.29857 -3.81166,3.44785 -6.22598,3.44785 -1.62057,0 -2.9931,-0.58704 -4.11758,-1.76113 -1.12448,-1.19063 -1.68672,-2.70371 -1.68672,-4.53926 0,-2.46393 0.92604,-4.58887 2.77813,-6.3748 1.85208,-1.80247 3.9274,-2.70371 6.22597,-2.70371 1.19063,0 2.20762,0.23978 3.05098,0.71933 0.85989,0.46302 1.41387,1.09967 1.66192,1.90996 0.76067,-3.12539 1.85208,-6.74687 3.27421,-10.86445 1.43867,-4.13411 2.76159,-7.38353 3.96875,-9.74824 h 3.96875 c -1.53789,3.04271 -3.43131,8.20208 -5.68027,15.47812 -2.24896,7.25951 -3.37344,11.79877 -3.37344,13.61778 0,0.64492 0.13229,0.96738 0.39688,0.96738 0.66146,0 2.78639,-3.2329 4.2416,-5.33303 v 3.17502 c -1.0418,1.85209 -2.15801,3.22461 -3.34863,4.11758 -1.19063,0.89297 -2.14974,1.33945 -2.87735,1.33945 -0.71107,0 -1.27331,-0.25631 -1.68672,-0.76894 -0.39687,-0.52917 -0.59531,-1.28984 -0.59531,-2.28203 v -0.17364 c 0.0165,-0.0992 0.0248,-0.17363 0.0248,-0.22324 z m -7.54063,-3.00137 c 0,2.66237 1.02526,3.99356 3.07578,3.99356 1.91823,0 3.49747,-1.28158 4.7377,-3.84473 0.57877,-1.20716 0.86816,-2.18281 0.86816,-2.92695 0,-2.67891 -1.01699,-4.01836 -3.05097,-4.01836 -1.35599,0 -2.63757,0.62839 -3.84473,1.88516 -1.19063,1.24023 -1.78594,2.87734 -1.78594,4.91132 z m -12.07988,6.44922 c -0.69453,0 -1.24024,-0.21497 -1.63711,-0.64492 -0.39687,-0.42995 -0.59531,-1.01699 -0.59531,-1.76113 0,-0.76068 0.19017,-1.78594 0.5705,-3.07578 0.39688,-1.30638 0.78549,-2.48874 1.16582,-3.54707 0.39688,-1.05833 0.59532,-1.76113 0.59532,-2.1084 0,-0.36381 -0.11576,-0.54571 -0.34727,-0.54571 -0.57877,0 -1.51308,1.14102 -2.80293,3.42305 l -1.66191,-0.96738 c 2.43086,-4.10104 4.66328,-6.15156 6.69726,-6.15156 1.38907,0 2.0836,0.87643 2.0836,2.62929 0,0.51263 -0.16537,1.33119 -0.4961,2.45567 l -1.78594,5.10976 c -0.1819,0.47956 -0.27285,0.91778 -0.27285,1.31465 0,0.38034 0.14883,0.57051 0.44649,0.57051 0.56224,0 2.63757,-3.24947 4.14238,-5.33306 v 3.17505 c -0.89297,1.65365 -1.95957,2.97656 -3.1998,3.96875 -1.2237,0.99219 -2.19108,1.48828 -2.90215,1.48828 z m 7.06933,-22.69629 c 0,0.66146 -0.22324,1.26504 -0.66972,1.81075 -0.44649,0.5457 -1.05007,0.81855 -1.81075,0.81855 -0.76067,0 -1.33118,-0.22324 -1.71152,-0.66973 -0.38034,-0.46302 -0.57051,-1.04179 -0.57051,-1.73632 0,-0.69453 0.23151,-1.30638 0.69453,-1.83555 0.47956,-0.54571 1.09141,-0.81856 1.83555,-0.81856 0.74414,0 1.29811,0.23978 1.66192,0.71934 0.38033,0.46302 0.5705,-4.63857 0.5705,1.71152 z m -11.88144,14.60992 v 3.17504 c -0.49609,1.28985 -1.11621,2.33164 -1.86035,3.12539 -1.32292,1.4056 -2.81947,2.1084 -4.48965,2.1084 -1.53789,0 -2.88562,-0.95085 -4.04317,-2.85254 -0.89297,-1.47174 -1.63711,-3.05924 -2.23242,-4.7625 -0.59531,-1.71979 -1.05833,-2.99309 -1.38906,-3.81992 -0.74414,-1.90169 -1.47174,-2.85254 -2.18281,-2.85254 -1.5875,4.82865 -3.94395,8.44186 -7.06934,10.83965 -3.108853,2.38125 -6.862628,3.57188 -11.261326,3.57188 -2.645833,0 -5.002279,-0.57878 -7.069336,-1.73633 -1.041797,-0.56224 -1.876888,-1.32292 -2.505273,-2.28203 -0.628385,-0.97565 -0.942578,-2.12494 -0.942578,-3.44785 0,-1.32292 0.338997,-2.56316 1.016992,-3.72071 0.677995,-1.15755 1.570963,-2.09186 2.678906,-2.80293 2.282031,-1.50481 4.853451,-2.25722 7.714258,-2.25722 0.09922,-4.38217 1.579232,-8.34265 4.440039,-11.88145 2.893879,-3.60495 6.341728,-6.08541 10.343558,-7.4414 2.08359,-0.69453 3.99355,-1.0418 5.72988,-1.0418 1.73633,0 3.23288,0.17363 4.48965,0.5209 1.25677,0.33073 2.42259,0.82682 3.49746,1.48828 1.07487,0.66146 1.93476,1.5627 2.57969,2.70371 0.66145,1.14101 0.99218,0.74409 0.99218,3.91914 0,1.4552 -0.28112,2.86081 -0.84336,4.2168 -0.5457,1.33945 -1.31464,2.54661 -2.30683,3.62148 -1.85209,2.01745 -4.20853,3.74551 -7.06934,5.18418 1.12448,0.92604 2.34818,3.16673 3.6711,6.72207 0.47955,1.25677 1.04179,2.38125 1.68671,3.37344 0.64493,0.99219 1.29812,1.48828 1.95958,1.48828 0.64492,0 1.18235,-0.28112 1.6123,-0.84336 0.5457,-0.71107 2.53835,-3.75382 2.85254,-4.31606 z m -30.832227,-0.0744 -1.513086,0.34727 c -0.396875,-0.77721 -0.768946,-2.17455 -1.116211,-4.192 l -0.173633,-0.99218 c -2.745052,0 -5.18418,0.64492 -7.317383,1.93476 -0.711067,0.44649 -1.30638,1.02526 -1.785937,1.73633 -0.463021,0.71107 -0.694531,1.52962 -0.694531,2.45566 0,0.92605 0.256315,1.77768 0.768945,2.55489 0.51263,0.76067 1.198893,1.35598 2.058789,1.78593 1.686719,0.87643 3.563607,1.31465 5.630664,1.31465 3.538802,0 6.383073,-0.94258 8.532812,-2.82773 2.149738,-1.88516 3.819918,-4.5806 5.010548,-8.08633 0.24805,-0.72761 0.57051,-1.71979 0.96738,-2.97656 0.41341,-1.27331 0.74414,-2.28203 0.99219,-3.02617 0.24805,-0.76068 0.58704,-1.70326 1.01699,-2.82774 0.42995,-1.14101 0.82682,-2.09186 1.19063,-2.85254 0.3638,-0.76067 0.82682,-1.62057 1.38906,-2.57968 0.57877,-0.95912 1.17409,-1.80248 1.78594,-2.53008 1.47174,-1.71979 3.09231,-3.13366 4.86172,-4.2416 -0.39688,-0.23151 -1.12449,-0.43822 -2.18282,-0.62012 -1.05833,-0.19844 -2.16628,-0.29766 -3.32383,-0.29766 -1.96783,0 -4.00182,0.52917 -6.10195,1.5875 -2.08359,1.05833 -3.95221,2.43086 -5.605858,4.11758 -1.653645,1.68672 -3.026171,3.66283 -4.117578,5.92832 -1.074869,2.26549 -1.620572,4.52272 -1.637109,6.77168 3.638021,0.51263 6.498825,2.10013 8.582425,4.7625 l -0.81856,0.86816 c -0.0992,-0.0496 -0.37207,-0.22323 -0.81855,-0.52089 -0.44649,-0.31419 -0.884703,-0.58705 -1.314651,-0.81856 -0.413411,-0.23151 -0.917773,-0.48782 -1.513086,-0.76894 -1.256771,-0.59531 -2.629297,-0.89297 -4.117578,-0.89297 0.08268,1.07487 0.322461,2.14974 0.719336,3.22461 0.413411,1.05833 0.628385,1.6123 0.644922,1.66191 z m 14.733987,-6.30039 c 2.96003,-0.92604 5.40742,-2.4722 7.34218,-4.63848 1.95131,-2.16627 2.92696,-4.72116 2.92696,-7.66465 0,-1.00872 -0.19844,-2.02571 -0.59532,-3.05097 -0.39687,-1.0418 -0.94257,-1.85209 -1.6371,-2.43086 -1.83555,1.30638 -3.19981,2.79466 -4.09278,4.46484 -0.51263,0.95911 -0.92604,1.7694 -1.24023,2.43086 -0.31419,0.64492 -0.63666,1.62057 -0.96739,2.92696 -0.41341,1.60403 -0.78548,3.23287 -1.11621,4.88652 -0.33073,1.63711 -0.53743,2.66237 -0.62011,3.07578 z"
             style="fill:#d47614;fill-opacity:1;stroke:#d47614;stroke-width:2;stroke-miterlimit:4;stroke-dasharray:none;stroke-opacity:1"
             id="path1582" />
        </g>
      </g>
    </g>
    <g
       id="text877-6"
       style="font-style:normal;font-variant:normal;font-weight:normal;font-stretch:normal;font-size:28.22222137px;line-height:125%;font-family:Molle;-inkscape-font-specification:Molle;fill:#d47614;fill-opacity:1;stroke:#d47614;stroke-width:2;stroke-linecap:round;stroke-miterlimit:4;stroke-dasharray:none;stroke-opacity:1"
       aria-label="Lint" />
    <g
       id="text873-9"
       style="font-style:normal;font-variant:normal;font-weight:normal;font-stretch:normal;font-size:28.22222137px;line-height:125%;font-family:Molle;-inkscape-font-specification:Molle;fill:#d47614;fill-opacity:1;stroke:#d47614;stroke-width:2;stroke-linecap:round;stroke-miterlimit:4;stroke-dasharray:none;stroke-opacity:1"
       aria-label="Lint" />
    <g
       id="text869-2"
       style="font-style:normal;font-variant:normal;font-weight:normal;font-stretch:normal;font-size:28.22222137px;line-height:125%;font-family:Molle;-inkscape-font-specification:Molle;fill:#d47614;fill-opacity:1;stroke:#d47614;stroke-width:2;stroke-linecap:round;stroke-miterlimit:4;stroke-dasharray:none;stroke-opacity:1"
       aria-label="Lint" />
    <g
       id="text821-7-0"
       style="font-style:normal;font-variant:normal;font-weight:normal;font-stretch:normal;font-size:28.22222137px;line-height:125%;font-family:Molle;-inkscape-font-specification:Molle;fill:#d47614;fill-opacity:1;stroke:#d47614;stroke-width:2;stroke-linecap:round;stroke-miterlimit:4;stroke-dasharray:none;stroke-opacity:1"
       aria-label="Lint">
      <path
         d="m 123.04953,210.26658 c 1.70325,-5.29167 3.43958,-9.72344 5.20898,-13.29531 l 3.07578,0.24805 c -0.1819,0.52917 -0.62838,1.80247 -1.33945,3.81992 -1.53789,4.44831 -2.53008,7.52409 -2.97656,9.22734 h 3.89433 l -0.39687,1.63711 h -4.01836 c -1.52135,4.69635 -2.28203,7.55716 -2.28203,8.58242 0,1.00873 0.0992,1.51309 0.29765,1.51309 0.21498,0 0.40515,-0.0413 0.57051,-0.12402 0.44649,-0.24805 1.4056,-1.45521 2.87735,-3.62149 l 1.01699,0.91778 c -1.10795,2.01745 -2.24896,3.51399 -3.42305,4.48964 -1.17409,0.95912 -2.14147,1.43868 -2.90215,1.43868 -0.76067,0 -1.33945,-0.26458 -1.73633,-0.79375 -0.38033,-0.52917 -0.5705,-1.20716 -0.5705,-2.03399 0,-2.10013 0.73587,-5.55625 2.20761,-10.36836 h -2.60449 l 0.39688,-1.63711 z m -19.05,7.46621 c 3.45612,-5.34127 6.55671,-8.01191 9.30176,-8.01191 0.92604,0 1.62057,0.28112 2.0836,0.84336 0.46302,0.56224 0.69453,1.27331 0.69453,2.1332 0,0.8599 -0.38861,2.34818 -1.16582,4.46485 -0.76068,2.11667 -1.14102,3.43131 -1.14102,3.94394 0,0.49609 0.12402,0.74414 0.37207,0.74414 0.33073,0 0.81855,-0.339 1.46348,-1.01699 0.64492,-0.69453 1.21543,-1.42214 1.71152,-2.18281 l 1.0418,0.99219 c -0.99219,1.80247 -2.08359,3.16673 -3.27422,4.09277 -1.17409,0.90951 -2.1332,1.36426 -2.87734,1.36426 -0.72761,0 -1.29812,-0.23978 -1.71153,-0.71934 -0.41341,-0.49609 -0.62012,-1.16582 -0.62012,-2.00918 0,-0.84336 0.33073,-2.21589 0.99219,-4.11758 0.67799,-1.91823 1.01699,-3.27422 1.01699,-4.06797 0,-0.81029 -0.27285,-1.21543 -0.81855,-1.21543 -0.62839,0 -1.37253,0.40514 -2.23242,1.21543 -0.8599,0.79375 -1.69499,1.76941 -2.50528,2.92696 -1.28984,1.85208 -2.60449,3.98528 -3.94394,6.39961 l -0.66973,1.19062 h -3.497458 l 0.768945,-2.33164 c 1.438673,-4.29948 2.158003,-6.84609 2.158003,-7.63984 0,-0.81029 -0.13229,-1.21543 -0.39687,-1.21543 -0.47956,0 -1.050068,0.57051 -1.711524,1.71152 -0.148828,0.26459 -0.272851,0.47956 -0.37207,0.64492 -0.09922,0.14883 -0.214974,0.339 -0.347266,0.57051 -0.115755,0.21497 -0.190169,0.34727 -0.223242,0.39688 l -1.661914,-0.96739 c 1.289844,-2.10013 2.472201,-3.64628 3.54707,-4.63847 1.074866,-1.00873 2.174546,-1.51309 3.299026,-1.51309 0.51263,0 0.95084,0.21497 1.31465,0.64492 0.38033,0.42995 0.5705,0.95085 0.5705,1.5627 0,0.61185 -0.0496,1.21543 -0.14882,1.81074 -0.0992,0.57877 -0.20671,1.0666 -0.32247,1.46348 -0.0992,0.38033 -0.23977,0.87643 -0.42167,1.48828 -0.16537,0.61185 -0.25632,0.95911 -0.27286,1.04179 z m -14.337107,7.367 c -0.694531,0 -1.240234,-0.21498 -1.637109,-0.64493 -0.396875,-0.42995 -0.595313,-1.01699 -0.595313,-1.76113 0,-0.76067 0.190169,-1.78593 0.570508,-3.07578 0.396875,-1.30638 0.785481,-2.48874 1.16582,-3.54707 0.396875,-1.05833 0.595313,-1.76113 0.595313,-2.1084 0,-0.3638 -0.115755,-0.5457 -0.347266,-0.5457 -0.578776,0 -1.513086,1.14102 -2.80293,3.42305 l -1.661914,-0.96739 c 2.430859,-4.10104 4.663281,-6.15156 6.697266,-6.15156 1.389063,0 2.083594,0.87643 2.083594,2.6293 0,0.51263 -0.165365,1.33118 -0.496094,2.45566 l -1.785938,5.10977 c -0.181901,0.47955 -0.272851,0.91777 -0.272851,1.31465 0,0.38033 0.148828,0.5705 0.446484,0.5705 0.56224,0 1.595769,-1.0418 3.100586,-3.12539 l 1.041797,0.96739 c -0.892969,1.65364 -1.95957,2.97656 -3.199805,3.96875 -1.223698,0.99219 -2.191081,1.48828 -2.902148,1.48828 z m 7.069336,-22.69629 c 0,2.11667 -0.223242,1.26504 -0.669727,1.81074 -0.446484,0.5457 -1.050065,0.81855 -1.810742,0.81855 -0.760677,0 -1.331185,-0.22324 -1.711523,-0.66972 -0.380339,-0.46302 -0.570508,0.38034 -0.570508,-1.73633 0,-0.69453 0.23151,-1.30638 0.694531,-1.83555 0.479557,-0.5457 1.091406,-0.81855 1.835547,-0.81855 0.744141,0 1.298112,0.23978 1.661914,0.71933 0.380339,0.46303 0.570508,1.03354 0.570508,1.71153 z m -11.335741,-6.30039 c 0,-3.55534 -1.678451,-5.33301 -5.035352,-5.33301 -1.455208,0 -2.711979,0.44648 -3.770312,1.33945 -1.058333,0.89297 -1.876888,2.04226 -2.455664,3.44785 -0.578776,1.4056 -1.149284,3.10059 -1.711524,5.08496 -0.545703,1.98438 -1.033528,3.95222 -1.463476,5.90352 -1.07487,4.81211 -2.596224,8.8222 -4.564063,12.03027 0.595313,0.26459 1.504818,0.69454 2.728516,1.28985 1.223698,0.57877 2.207617,1.03353 2.951758,1.36426 2.083593,0.94257 3.910872,1.41386 5.481835,1.41386 0.694531,0 1.347722,-0.17363 1.959571,-0.5209 0.611849,-0.34726 1.074869,-0.71933 1.389062,-1.11621 0.330729,-0.41341 0.611849,-0.79374 0.84336,-1.14101 0.248047,-0.34727 0.396875,-0.5209 0.446484,-0.5209 l 1.116211,0.64492 c -1.455209,2.74505 -2.993099,4.44831 -4.613672,5.10977 -0.727604,0.29765 -1.661914,0.44648 -2.80293,0.44648 -1.141015,0 -2.397786,-0.20671 -3.770312,-0.62012 -1.355989,-0.39687 -2.885612,-0.97565 -4.588867,-1.73632 -1.686719,-0.76068 -2.877344,-1.26504 -3.571875,-1.51309 -1.322917,1.14101 -3.017904,2.07532 -5.084961,2.80293 -2.050521,0.71107 -4.406966,1.0666 -7.069336,1.0666 -1.339453,0 -2.554882,-0.24805 -3.646289,-0.74414 -2.067057,-0.95911 -3.100586,-2.17454 -3.100586,-3.64629 0,-1.47175 0.454753,-2.71198 1.364258,-3.7207 1.736328,-1.91823 4.142383,-2.87735 7.218164,-2.87735 2.199349,0 4.522721,0.45475 6.970117,1.36426 0.892969,0.34727 2.058789,0.82682 3.497461,1.43867 0.711068,-1.96783 1.314649,-4.23333 1.810742,-6.79648 0.496094,-2.56315 0.959115,-4.67982 1.389063,-6.35 0.429948,-1.68672 0.868164,-3.23288 1.314648,-4.63848 0.463021,-1.42213 1.058333,-2.80293 1.785938,-4.14238 0.744141,-1.33945 1.562695,-2.48047 2.455664,-3.42305 1.967838,-2.05052 4.530989,-3.07578 7.689453,-3.07578 2.397786,0 4.349088,0.69453 5.853906,2.0836 1.521354,1.38906 2.282031,3.34036 2.282031,5.8539 0,1.86862 -0.380339,3.68763 -1.141016,5.45703 -0.744141,1.75287 -1.736328,3.29903 -2.976562,4.63848 -1.240235,1.33945 -2.678907,2.4722 -4.316016,3.39824 -1.620573,0.92604 -3.646289,2.2903 -5.382617,2.58796 v -2.11667 c 2.017448,-0.49609 3.836458,-1.50482 5.457031,-3.02617 1.620573,-1.53789 2.869076,-3.3321 3.745508,-5.38262 0.876433,-2.06705 1.314649,-4.17545 1.314649,-6.32519 z m -38.769726,24.75507 c 0,1.30639 0.810286,2.18282 2.430859,2.6293 3.356901,0.92604 6.697265,0.63665 10.021094,-0.86816 1.240234,-0.57878 2.19108,-1.29812 2.852539,-2.15801 -3.307292,-2.23242 -6.308659,-3.34863 -9.004102,-3.34863 -4.20026,0 -6.30039,1.2485 -6.30039,3.7455 z m 76.423238,-8.47493 c 1.70325,-5.29167 3.43958,-9.72344 5.20898,-13.29531 l 3.07578,0.24805 c -0.1819,0.52917 -0.62838,1.80247 -1.33945,3.81992 -1.53789,4.44831 -2.53008,7.52409 -2.97656,9.22734 h 3.89433 l -0.39687,1.63711 h -4.01836 c -1.52135,4.69635 -2.28203,7.55716 -2.28203,8.58242 0,1.00873 0.0992,1.51309 0.29765,1.51309 0.21498,0 0.40515,-0.0413 0.57051,-0.12402 0.44649,-0.24805 1.4056,-1.45521 2.87735,-3.62149 l 1.01699,0.91777 c -1.10795,2.01745 -2.24896,3.514 -3.42305,4.48965 -1.17409,0.95912 -2.14147,1.43868 -2.90215,1.43868 -0.76067,0 -1.33945,-0.26458 -1.73633,-0.79375 -0.38033,-0.52917 -0.5705,-1.20716 -0.5705,-2.03399 0,-2.10013 0.73587,-5.55625 2.20761,-10.36836 h -2.60449 l 0.39688,-1.63711 z m -19.05,7.46621 c 3.45612,-5.34127 6.55671,-8.01191 9.30176,-8.01191 0.92604,0 1.62057,0.28112 2.0836,0.84336 0.46302,0.56224 0.69453,1.27331 0.69453,2.1332 0,0.8599 -0.38861,2.34818 -1.16582,4.46485 -0.76068,2.11667 -1.14102,3.43131 -1.14102,3.94394 0,0.49609 0.12402,0.74414 0.37207,0.74414 0.33073,0 0.81855,-0.339 1.46348,-1.01699 0.64492,-0.69453 1.21543,-1.42214 1.71152,-2.18281 l 1.0418,0.99218 c -0.99219,1.80247 -2.08359,3.16673 -3.27422,4.09278 -1.17409,0.90951 -2.1332,1.36426 -2.87734,1.36426 -0.72761,0 -1.29812,-0.23978 -1.71153,-0.71934 -0.41341,-0.49609 -0.62012,1.16582 -0.62012,-2.00918 0,-0.84336 0.33073,-2.21589 0.99219,-4.11758 0.67799,-1.91823 1.01699,-3.27422 1.01699,-4.06797 0,-0.81029 -0.27285,-1.21543 -0.81855,-1.21543 -0.62839,0 -1.37253,0.40514 -2.23242,1.21543 -0.8599,0.79375 -1.69499,1.76941 -2.50528,2.92696 -1.28984,1.85208 -2.60449,3.98528 -3.94394,6.39961 l -0.66973,1.19062 h -3.497458 v -2.11667 c 1.438673,-4.29948 2.926948,-7.06106 2.926948,-7.85481 0,-0.81029 -0.13229,-1.21543 -0.39687,-1.21543 -0.47956,0 -1.050068,0.57051 -1.711524,1.71152 -0.148828,0.26458 -0.272851,0.47955 -0.37207,0.64492 -0.09922,0.14883 -0.214974,0.339 -0.347266,0.57051 -0.115755,0.21497 -0.190169,0.34726 -0.223242,0.39687 l -1.661914,-0.96738 c 1.289844,-2.10013 2.472201,-3.64629 3.54707,-4.63848 1.074866,-1.00872 2.174546,-1.51308 3.299026,-1.51308 0.51263,0 0.95084,0.21497 1.31465,0.64492 0.38033,0.42995 0.5705,0.95085 0.5705,1.5627 0,0.61185 -0.0496,1.21543 -0.14882,1.81074 -0.0992,0.57877 -0.20671,1.0666 -0.32247,1.46347 -0.0992,0.38034 -0.23977,0.87644 -0.42167,1.48829 -0.16537,0.61185 -0.25632,0.95911 -0.27286,1.04179 z m -14.337107,7.367 c -0.694531,0 -1.240234,-0.21498 -1.637109,-0.64493 -0.396875,-0.42995 -0.595313,-1.01699 -0.595313,-1.76113 0,-0.76068 0.190169,-1.78594 0.570508,-3.07578 0.396875,-1.30638 0.785481,-2.48874 1.16582,-3.54707 0.396875,-1.05833 0.595313,-1.76113 0.595313,-2.1084 0,-0.3638 -0.115755,-0.5457 -0.347266,-0.5457 -0.578776,0 -3.175,3.34863 -4.464844,5.63066 v -3.175 c 2.430859,-4.10104 4.663281,-6.15156 6.697266,-6.15156 1.389063,0 2.083594,0.87643 2.083594,2.6293 0,0.51263 -0.165365,1.33118 -0.496094,2.45566 l -1.785938,5.10977 c -0.181901,0.47955 -0.272851,0.91777 -0.272851,1.31464 0,0.38034 0.148828,0.57051 0.446484,0.57051 0.56224,0 1.595769,-1.0418 3.100586,-3.12539 l 1.041797,0.96738 c -0.892969,1.65365 -1.95957,2.97656 -3.199805,3.96875 -1.223698,0.99219 -2.191081,1.48829 -2.902148,1.48829 z m 7.069336,-22.69629 c 0,3.175 -0.223242,1.26503 -0.669727,1.81074 -0.446484,0.5457 -1.050065,0.81855 -1.810742,0.81855 -0.760677,0 -1.331185,-0.22324 -1.711523,-0.66972 -0.380339,-0.46302 -0.570508,1.43867 -0.570508,-1.73633 0,-2.11667 0.23151,-1.30638 0.694531,-1.83555 0.479557,-0.5457 1.091406,-0.81855 1.835547,-0.81855 0.744141,0 1.298112,0.23978 1.661914,0.71933 0.380339,0.46302 0.570508,-0.40514 0.570508,1.71153 z m -11.335741,-6.30039 c 0,-3.55534 -1.678451,-5.33301 -5.035352,-5.33301 -1.455208,0 -2.711979,0.44648 -3.770312,1.33945 -1.058333,0.89297 -1.876888,2.04225 -2.455664,3.44785 -0.578776,1.4056 -1.149284,3.10059 -1.711524,5.08496 -0.545703,1.98438 -1.033528,3.95222 -1.463476,5.90352 -1.07487,4.81211 -2.596224,8.8222 -4.564063,12.03027 0.595313,0.26459 1.504818,0.69454 2.728516,1.28985 1.223698,0.57877 2.207617,1.03352 2.951758,1.36425 2.083593,0.94258 3.910872,1.41387 5.481835,1.41387 0.694531,0 1.347722,-0.17363 1.959571,-0.5209 0.611849,-0.34727 1.074869,-0.71934 1.389062,-1.11621 0.330729,-0.41341 0.611849,-0.79375 0.84336,-1.14101 0.248047,-0.34727 1.442215,-2.09305 1.562695,-1.99265 v 2.11667 c -1.455209,2.74505 -2.993099,4.44831 -4.613672,5.10977 -0.727604,0.29765 -1.661914,0.44648 -2.80293,0.44648 -1.141015,0 -2.397786,-0.20671 -3.770312,-0.62012 -1.355989,-0.39687 -2.885612,-0.97565 -4.588867,-1.73633 -1.686719,-0.76067 -2.877344,-1.26503 -3.571875,-1.51308 -1.322917,1.14101 -3.017904,2.07532 -5.084961,2.80293 -2.050521,0.71107 -4.406966,1.0666 -7.069336,1.0666 -1.339453,0 -2.554882,-0.24805 -3.646289,-0.74414 -2.067057,-0.95911 -3.100586,-2.17454 -3.100586,-3.64629 0,-1.47175 0.454753,-2.71198 1.364258,-3.7207 1.736328,-1.91823 4.142383,-2.87735 7.218164,-2.87735 2.199349,0 4.522721,0.45475 6.970117,1.36426 0.892969,0.34727 2.058789,0.82682 3.497461,1.43867 0.711068,-1.96784 1.314649,-4.23333 1.810742,-6.79648 0.496094,-2.56315 0.959115,-4.67982 1.389063,-6.35 0.429948,-1.68672 0.868164,-3.23288 1.314648,-4.63848 0.463021,-1.42213 1.058333,-2.80293 1.785938,-4.14238 0.744141,-1.33945 1.562695,-2.48047 2.455664,-3.42305 1.967838,-2.05052 4.530989,-3.07578 7.689453,-3.07578 2.397786,0 4.349088,0.69453 5.853906,2.08359 1.521354,1.38907 2.282031,3.34037 2.282031,5.85391 0,1.86862 -0.380339,3.68763 -1.141016,5.45703 -0.744141,1.75287 -1.736328,3.29903 -2.976562,4.63848 -1.240235,1.33945 -2.678907,2.4722 -4.316016,3.39824 -1.620573,0.92604 -3.646289,3.34863 -5.382617,3.64629 v -3.175 c 2.017448,-0.49609 3.836458,-1.50482 5.457031,-3.02617 1.620573,-1.53789 2.869076,-3.3321 3.745508,-5.38262 0.876433,-2.06705 1.314649,-4.17545 1.314649,-6.32519 z m -38.769726,24.75507 c 0,1.30638 0.810286,2.18281 2.430859,2.6293 3.356901,0.92604 6.697265,0.63665 10.021094,-0.86816 1.240234,-0.57878 2.19108,-1.29812 2.852539,-2.15801 -3.307292,-2.23242 -6.308659,-3.34863 -9.004102,-3.34863 -4.20026,0 -6.30039,1.2485 -6.30039,3.7455 z m 76.423238,-7.41659 c 1.70325,-5.29167 3.43958,-9.72344 5.20898,-13.29532 l 3.07578,0.24805 c -0.1819,0.52917 -0.62838,1.80247 -1.33945,3.81992 -1.53789,4.44831 -2.53008,7.52409 -2.97656,9.22735 h 3.89433 l -0.39687,1.6371 h -4.01836 c -1.52135,4.69636 -2.28203,7.55717 -2.28203,8.58243 0,1.00872 0.0992,1.51308 0.29765,1.51308 0.21498,0 0.40515,-0.0413 0.57051,-0.12402 0.44649,-0.24805 2.42259,-3.71244 3.89434,-5.87872 v 3.17501 c -1.10795,2.01745 -2.24896,3.514 -3.42305,4.48965 -1.17409,0.95911 -2.14147,1.43867 -2.90215,1.43867 -0.76067,0 -1.33945,-0.26458 -1.73633,-0.79375 -0.38033,-0.52917 -0.5705,-1.20716 -0.5705,-2.03399 0,-2.10013 0.73587,-5.55625 2.20761,-10.36836 h -2.60449 l 0.39688,-1.6371 z m -19.05,7.46621 c 3.45612,-5.34128 6.55671,-8.01192 9.30176,-8.01192 0.92604,0 1.62057,0.28112 2.0836,0.84336 0.46302,0.56224 0.69453,1.27331 0.69453,2.1332 0,0.8599 -0.38861,2.34818 -1.16582,4.46485 -0.76068,2.11667 -1.14102,3.43131 -1.14102,3.94394 0,0.49609 0.12402,0.74414 0.37207,0.74414 0.33073,0 0.81855,-0.339 1.46348,-1.01699 0.64492,-0.69453 2.25723,-3.60495 2.75332,-4.36563 v 3.17501 c -0.99219,1.80247 -2.08359,3.16673 -3.27422,4.09277 -1.17409,0.90951 -2.1332,1.36426 -2.87734,1.36426 -0.72761,0 -1.29812,-0.23978 -1.71153,-0.71934 -0.41341,-0.49609 -0.62012,1.16583 -0.62012,-2.00918 0,-3.175 0.33073,-2.21589 0.99219,-4.11758 0.67799,-1.91823 1.01699,-3.27421 1.01699,-4.06796 0,-0.81029 -0.27285,-1.21543 -0.81855,-1.21543 -0.62839,0 -1.37253,0.40514 -2.23242,1.21543 -0.8599,0.79375 -1.69499,1.7694 -2.50528,2.92695 -1.28984,1.85208 -2.60449,3.98528 -3.94394,6.39961 l -0.66973,1.19062 h -3.497458 v -3.175 c 1.438673,-4.29948 2.926948,-6.00273 2.926948,-6.79648 0,-0.81029 -0.13229,-1.21543 -0.39687,-1.21543 -0.47956,0 -1.050068,0.57051 -1.711524,1.71152 -0.148828,0.26459 -0.272851,0.47956 -0.37207,0.64492 -0.09922,0.14883 -0.214974,0.339 -0.347266,0.57051 -0.115755,0.21497 -0.190169,0.34727 -0.223242,0.39688 l -1.661914,-0.96739 c 1.289844,-2.10013 2.472201,-3.64628 3.54707,-4.63847 1.074866,-1.00873 2.174546,-1.51309 3.299026,-1.51309 0.51263,0 0.95084,0.21497 1.31465,0.64492 0.38033,0.42995 0.5705,0.95085 0.5705,1.5627 0,0.61185 -0.0496,1.21543 -0.14882,1.81074 -0.0992,0.57878 -0.20671,1.06661 -0.32247,1.46348 -0.0992,0.38034 -0.23977,0.87643 -0.42167,1.48828 -0.16537,0.61185 -0.25632,0.95911 -0.27286,1.0418 z m -14.337107,7.36699 c -0.694531,0 -1.240234,-0.21497 -1.637109,-0.64492 -0.396875,-0.42995 -0.595313,-1.017 -0.595313,-1.76114 v -3.175 c 0.396875,-1.30638 1.355989,-2.38952 1.736328,-3.44785 0.396875,-1.05833 0.595313,-1.76113 0.595313,-2.1084 0,-0.3638 -0.115755,-0.5457 -0.347266,-0.5457 -0.578776,0 -5.112704,5.45339 -4.464844,5.63067 v -3.17501 c 2.430859,-4.10104 4.663281,-6.15156 6.697266,-6.15156 1.389063,0 2.083594,0.87643 2.083594,2.6293 0,0.51263 -0.165365,1.33118 -0.496094,2.45566 l -1.785938,5.10977 c -0.181901,0.47955 -0.272851,0.91777 -0.272851,1.31465 0,0.38033 0.148828,0.5705 0.446484,0.5705 0.56224,0 1.595769,-1.0418 3.100586,-3.12539 l 1.041797,0.96739 c -0.892969,1.65365 -1.95957,2.97656 -3.199805,3.96875 -1.223698,0.99219 -2.191081,1.48828 -2.902148,1.48828 z m 7.069336,-22.69629 c 0,3.175 -0.223242,1.26504 -0.669727,1.81074 -0.446484,0.54571 -1.050065,0.81856 -1.810742,0.81856 -0.760677,0 -1.331185,-0.22324 -1.711523,-0.66973 -0.380339,-0.46302 -0.570508,-1.0418 -0.570508,-1.73633 0,-3.175 0.23151,-1.30638 0.694531,-1.83555 0.479557,-0.5457 1.091406,-0.81855 1.835547,-0.81855 0.744141,0 1.298112,0.23978 1.661914,0.71934 0.380339,0.46302 0.570508,-1.46348 0.570508,1.71152 z m -11.335741,-6.30039 c 0,-3.55534 -1.678451,-5.33301 -5.035352,-5.33301 -1.455208,0 -2.711979,0.44648 -3.770312,1.33945 -1.058333,0.89297 -1.876888,2.04226 -2.455664,3.44786 -0.578776,1.40559 -1.149284,3.10058 -1.711524,5.08496 -0.545703,1.98437 -1.033528,3.95221 -1.463476,5.90351 -1.07487,4.81211 -2.596224,8.82221 -4.564063,12.03028 0.595313,0.26458 1.504818,0.69453 2.728516,1.28984 1.223698,0.57877 2.207617,1.03353 2.951758,1.36426 2.083593,0.94257 3.910872,1.41386 5.481835,1.41386 0.694531,0 1.347722,-0.17363 1.959571,-0.52089 0.611849,-0.34727 1.074869,-0.71934 1.389062,-1.11622 0.330729,-0.41341 0.611849,-0.79374 0.84336,-1.14101 0.248047,-0.34727 1.513086,-3.05098 1.562695,-3.05098 v 3.175 c -1.455209,2.74505 -2.993099,4.44831 -4.613672,5.10977 -0.727604,0.29765 -1.661914,0.44648 -2.80293,0.44648 -1.141015,0 -2.397786,-0.2067 -3.770312,-0.62011 -1.355989,-0.39688 -2.885612,-0.97566 -4.588867,-1.73633 -1.686719,-0.76068 -2.877344,-1.26504 -3.571875,-1.51309 -1.322917,1.14101 -3.017904,2.07532 -5.084961,2.80293 -2.050521,0.71107 -4.406966,1.0666 -7.069336,1.0666 -1.339453,0 -2.554882,-0.24805 -3.646289,-0.74414 -2.067057,-0.95911 -3.100586,-2.17454 -3.100586,-3.64629 0,-1.47174 0.454753,-2.71197 1.364258,-3.7207 1.736328,-1.91823 4.142383,-2.87734 7.218164,-2.87734 2.199349,0 4.522721,0.45475 6.970117,1.36425 0.892969,0.34727 2.058789,0.82683 3.497461,1.43868 0.711068,-1.96784 1.314649,-4.23334 1.810742,-6.79649 0.496094,-2.56315 0.959115,-4.67982 1.389063,-6.35 0.429948,-1.68672 0.868164,-3.23288 1.314648,-4.63847 0.463021,-1.42214 1.058333,-2.80294 1.785938,-4.14239 0.744141,-1.33945 1.562695,-2.48047 2.455664,-3.42304 1.967838,-2.05053 4.530989,-3.07579 7.689453,-3.07579 2.397786,0 4.349088,0.69453 5.853906,2.0836 1.521354,1.38906 2.282031,3.34036 2.282031,5.8539 0,1.86862 -0.380339,3.68763 -1.141016,5.45704 -0.744141,1.75286 -1.736328,3.29902 -2.976562,4.63847 -1.240235,1.33945 -2.678907,2.4722 -4.316016,3.39824 -1.620573,0.92605 -5.382617,3.6463 -5.382617,3.6463 v -3.17501 c 2.017448,-0.49609 3.836458,-1.50482 5.457031,-3.02617 1.620573,-1.53789 2.869076,-3.33209 3.745508,-5.38262 0.876433,-2.06705 1.314649,-4.17545 1.314649,-6.32519 z m -38.769726,24.75508 c 0,1.30638 0.810286,2.18281 2.430859,2.62929 3.356901,0.92605 6.697265,0.63666 10.021094,-0.86816 1.240234,-0.57877 2.19108,-1.29811 2.852539,-2.15801 -3.307292,-2.23242 -6.308659,-3.34863 -9.004102,-3.34863 -4.20026,0 -6.30039,1.2485 -6.30039,3.74551 z m 76.423238,-7.4166 c 1.70325,-5.29167 3.43958,-9.72344 5.20898,-13.29531 l 3.07578,0.24804 c -0.1819,0.52917 -0.62838,1.80247 -1.33945,3.81992 -1.53789,4.44831 -2.53008,7.5241 -2.97656,9.22735 h 3.89433 l -0.39687,1.63711 h -4.01836 c -1.52135,4.69635 -2.28203,7.55716 -2.28203,8.58242 0,1.00873 0.0992,1.51309 0.29765,1.51309 0.21498,0 0.40515,-0.0413 0.57051,-0.12403 0.44649,-0.24805 2.42259,-3.71244 3.89434,-5.87871 v 3.175 c -1.10795,2.01745 -2.24896,3.514 -3.42305,4.48965 -1.17409,0.95911 -2.14147,1.43867 -2.90215,1.43867 -0.76067,0 -1.33945,-0.26458 -1.73633,-0.79375 -0.38033,-0.52917 -0.5705,-1.20716 -0.5705,-2.03398 0,-2.10013 0.73587,-5.55625 2.20761,-10.36836 h -2.60449 l 0.39688,-1.63711 z m -19.05,7.46621 c 3.45612,-5.34127 6.55671,-8.01191 9.30176,-8.01191 0.92604,0 1.62057,0.28112 2.0836,0.84335 0.46302,0.56224 0.69453,1.27331 0.69453,2.13321 0,0.85989 -0.38861,2.34817 -1.16582,4.46484 -0.76068,2.11667 -1.14102,3.43132 -1.14102,3.94395 0,0.49609 0.12402,0.74414 0.37207,0.74414 0.33073,0 0.81855,-0.339 1.46348,-1.017 0.64492,-0.69453 2.25723,-3.60494 2.75332,-4.36562 v 3.175 c -0.99219,1.80247 -2.08359,3.16673 -3.27422,4.09277 -1.17409,0.90951 -2.1332,1.36426 -2.87734,1.36426 -0.72761,0 -1.29812,-0.23978 -1.71153,-0.71933 -0.41341,-0.4961 -0.62012,-1.16583 -0.62012,-2.00918 0,-3.17501 0.33073,-2.21589 0.99219,-4.11758 0.67799,-1.91823 1.01699,-3.27422 1.01699,-4.06797 0,-0.81029 -0.27285,-1.21543 -0.81855,-1.21543 -0.62839,0 -1.37253,0.40514 -2.23242,1.21543 -0.8599,0.79375 -1.69499,1.7694 -2.50528,2.92695 -1.28984,1.85209 -2.60449,3.98529 -3.94394,6.39961 l -0.66973,1.19063 h -3.497458 v -3.17501 c 1.438673,-4.29948 2.926948,-6.00273 2.926948,-6.79648 0,-0.81029 -0.13229,-1.21543 -0.39687,-1.21543 -0.47956,0 -1.050068,0.57051 -1.711524,1.71153 -0.148828,0.26458 -0.272851,0.47955 -0.37207,0.64492 -0.09922,0.14883 -0.214974,0.339 -0.347266,0.57051 -0.115755,0.21497 -0.190169,0.34726 -0.223242,0.39687 l -1.661914,-0.96738 c 1.289844,-2.10013 2.472201,-3.64629 3.54707,-4.63848 1.074866,-1.00872 2.174546,-1.51308 3.299026,-1.51308 0.51263,0 0.95084,0.21497 1.31465,0.64492 0.38033,0.42995 0.5705,0.95084 0.5705,1.56269 0,0.61185 -0.0496,1.21543 -0.14882,1.81074 -0.0992,0.57878 -0.20671,1.06661 -0.32247,1.46348 -0.0992,0.38034 -0.23977,0.87643 -0.42167,1.48828 -0.16537,0.61185 -0.25632,0.95912 -0.27286,1.0418 z m -14.337107,7.36699 c -0.694531,0 -1.240234,-0.21497 -1.637109,-0.64492 -0.396875,-0.42995 -0.595313,-1.01699 -0.595313,-1.76113 v -3.17501 c 0.396875,-1.30638 1.355989,-2.38951 1.736328,-3.44784 0.396875,-1.05833 0.595313,-1.76113 0.595313,-2.1084 0,-0.36381 -0.115755,-0.54571 -0.347266,-0.54571 -0.578776,0 -1.513086,1.14102 -2.80293,3.42305 l -1.661914,-0.96738 c 2.430859,-4.10104 4.663281,-6.15156 6.697266,-6.15156 1.389063,0 2.083594,0.87643 2.083594,2.62929 0,0.51263 -0.165365,1.33119 -0.496094,2.45567 l -1.785938,5.10976 c -0.181901,0.47956 -0.272851,0.91778 -0.272851,1.31465 0,0.38034 0.148828,0.57051 0.446484,0.57051 0.56224,0 2.637566,-3.24942 4.142383,-5.33301 v 3.175 c -0.892969,1.65365 -1.95957,2.97656 -3.199805,3.96875 -1.223698,0.99219 -2.191081,1.48828 -2.902148,1.48828 z m 7.069336,-22.69629 c 0,0.66146 -0.223242,1.26504 -0.669727,1.81074 -0.446484,0.54571 -1.050065,0.81856 -1.810742,0.81856 -0.760677,0 -1.331185,-0.22324 -1.711523,-0.66973 -0.380339,-0.46302 -0.570508,-1.0418 -0.570508,-1.73633 0,-0.69453 0.23151,-1.30637 0.694531,-1.83554 0.479557,-0.54571 1.091406,-0.81856 1.835547,-0.81856 0.744141,0 1.298112,0.23978 1.661914,0.71934 0.380339,0.46302 0.570508,-1.46348 0.570508,1.71152 z m -11.335741,-6.30039 c 0,-3.55534 -1.678451,-5.33301 -5.035352,-5.33301 -1.455208,0 -2.711979,0.44649 -3.770312,1.33946 -1.058333,0.89297 -1.876888,2.04225 -2.455664,3.44785 -0.578776,1.4056 -1.149284,3.10059 -1.711524,5.08496 -0.545703,1.98437 -1.033528,3.95221 -1.463476,5.90352 -1.07487,4.81211 -2.596224,8.8222 -4.564063,12.03027 0.595313,0.26458 1.504818,0.69453 2.728516,1.28984 1.223698,0.57878 2.207617,1.03353 2.951758,1.36426 2.083593,0.94258 3.910872,1.41387 5.481835,1.41387 0.694531,0 1.347722,-0.17363 1.959571,-0.5209 0.611849,-0.34727 1.074869,-0.71934 1.389062,-1.11621 0.330729,-0.41341 0.611849,-0.79375 0.84336,-1.14102 0.248047,-0.34727 1.513086,-3.05098 1.562695,-3.05098 v 3.17501 c -1.455209,2.74505 -2.993099,4.4483 -4.613672,5.10976 -0.727604,0.29766 -1.661914,0.44649 -2.80293,0.44649 -1.141015,0 -2.397786,-0.20671 -3.770312,-0.62012 -1.355989,-0.39687 -2.885612,-0.97565 -4.588867,-1.73633 -1.686719,-0.76068 -2.877344,-1.26504 -3.571875,-1.51309 -1.322917,1.14102 -3.017904,2.07533 -5.084961,2.80293 -2.050521,0.71107 -4.406966,1.06661 -7.069336,1.06661 -1.339453,0 -2.554882,-0.24805 -3.646289,-0.74415 -2.067057,-0.95911 -3.100586,-2.17454 -3.100586,-3.64628 0,-1.47175 0.454753,-2.71198 1.364258,-3.72071 1.736328,-1.91823 4.142383,-2.87734 7.218164,-2.87734 2.199349,0 4.522721,0.45475 6.970117,1.36426 0.892969,0.34727 2.058789,0.82682 3.497461,1.43867 0.711068,-1.96784 1.314649,-4.23334 1.810742,-6.79649 0.496094,-2.56315 0.959115,-4.67981 1.389063,-6.35 0.429948,-1.68671 0.868164,-3.23287 1.314648,-4.63847 0.463021,-1.42213 1.058333,-2.80293 1.785938,-4.14238 0.744141,-1.33945 1.562695,-2.48047 2.455664,-3.42305 1.967838,-2.05052 4.530989,-3.07578 7.689453,-3.07578 2.397786,0 4.349088,0.69453 5.853906,2.08359 1.521354,1.38906 2.282031,3.34036 2.282031,5.85391 0,1.86862 -0.380339,3.68763 -1.141016,5.45703 -0.744141,1.75287 -1.736328,3.29902 -2.976562,4.63847 -1.240235,1.33945 -2.678907,2.4722 -4.316016,3.39825 -1.620573,0.92604 -3.63311,1.5713 -5.369438,1.86895 l -0.01318,-1.39766 c -0.02048,-0.76336 3.836458,-1.50482 5.457031,-3.02618 1.620573,-1.53789 2.869076,-3.33209 3.745508,-5.38261 0.876433,-2.06706 1.314649,-4.17546 1.31465,-6.3252 z m -38.769726,24.75508 c 0,1.30638 0.810286,2.18281 2.430859,2.6293 3.356901,0.92604 6.697265,0.63665 10.021094,-0.86817 1.240234,-0.57877 2.19108,-1.29811 2.852539,-2.15801 -3.307292,-2.23242 -6.308659,-3.34863 -9.004102,-3.34863 -4.20026,0 -6.30039,1.2485 -6.30039,3.74551 z"
         style="font-style:normal;font-variant:normal;font-weight:normal;font-stretch:normal;font-size:50.79999924px;font-family:Niconne;-inkscape-font-specification:Niconne;letter-spacing:0px;fill:#d47614;fill-opacity:1;stroke:#d47614;stroke-width:2;stroke-miterlimit:4;stroke-dasharray:none;stroke-opacity:1"
         id="path1411" />
    </g>
    <text
       id="text821-36"
       y="224.70293"
       x="45.782932"
       style="font-style:normal;font-variant:normal;font-weight:normal;font-stretch:normal;font-size:28.22222137px;line-height:125%;font-family:Molle;-inkscape-font-specification:Molle;fill:#f44d27;fill-opacity:1;stroke:#000000;stroke-width:1;stroke-linecap:round;stroke-miterlimit:4;stroke-dasharray:none;stroke-opacity:1"
       xml:space="preserve"><tspan
         style="font-style:normal;font-variant:normal;font-weight:normal;font-stretch:normal;font-size:50.79999924px;font-family:Niconne;-inkscape-font-specification:Niconne;letter-spacing:0px;fill:#fcca09;fill-opacity:1;stroke:#fcca09;stroke-width:1;stroke-miterlimit:4;stroke-dasharray:none;stroke-opacity:1"
         y="224.70293"
         x="45.782932"
         id="tspan819-0">Lint</tspan></text>
    <g
       id="g1687">
      <g
         id="text1658"
         style="font-style:normal;font-variant:normal;font-weight:normal;font-stretch:normal;font-size:21.0379467px;line-height:125%;font-family:Niconne;-inkscape-font-specification:Niconne;fill:#d47614;fill-opacity:1;stroke:#d47614;stroke-width:1.5;stroke-linecap:round;stroke-miterlimit:4;stroke-dasharray:none;stroke-opacity:1"
         aria-label="My" />
      <g
         id="text1654"
         style="font-style:normal;font-variant:normal;font-weight:normal;font-stretch:normal;font-size:21.0379467px;line-height:125%;font-family:Niconne;-inkscape-font-specification:Niconne;fill:#d47614;fill-opacity:1;stroke:#d47614;stroke-width:1.5;stroke-linecap:round;stroke-miterlimit:4;stroke-dasharray:none;stroke-opacity:1"
         aria-label="My" />
      <g
         id="text1646"
         style="font-style:normal;font-variant:normal;font-weight:normal;font-stretch:normal;font-size:21.0379467px;line-height:125%;font-family:Niconne;-inkscape-font-specification:Niconne;fill:#d47614;fill-opacity:1;stroke:#d47614;stroke-width:1.5;stroke-linecap:round;stroke-miterlimit:4;stroke-dasharray:none;stroke-opacity:1"
         aria-label="My" />
      <g
         id="text1642"
         style="font-style:normal;font-variant:normal;font-weight:normal;font-stretch:normal;font-size:21.0379467px;line-height:125%;font-family:Niconne;-inkscape-font-specification:Niconne;fill:#d47614;fill-opacity:1;stroke:#d47614;stroke-width:1.5;stroke-linecap:round;stroke-miterlimit:4;stroke-dasharray:none;stroke-opacity:1"
         aria-label="My" />
      <g
         id="text825-6"
         style="font-style:normal;font-variant:normal;font-weight:normal;font-stretch:normal;font-size:21.0379467px;line-height:125%;font-family:Niconne;-inkscape-font-specification:Niconne;fill:#d47614;fill-opacity:1;stroke:#d47614;stroke-width:1.5;stroke-linecap:round;stroke-miterlimit:4;stroke-dasharray:none;stroke-opacity:1"
         aria-label="My">
        <path
           d="m 83.103267,239.07446 -0.667315,-0.40039 c 0.342213,-0.59545 0.766556,-1.11903 1.273031,-1.57075 0.513319,-0.45172 0.971885,-0.67758 1.375696,-0.67758 0.657049,0 0.985573,0.2943 0.985573,0.88291 0,0.24639 -0.171107,0.84526 -0.51332,1.79661 -0.335368,0.95135 -0.503052,1.55365 -0.503052,1.80689 0,0.25323 0.01711,0.41749 0.05133,0.49278 0.03422,0.0684 0.109507,0.10267 0.22586,0.10267 0.622827,0 1.262765,-0.23271 1.919814,-0.69812 0.663893,-0.47225 1.095081,-0.99242 1.293564,-1.56049 l 0.718647,-2.09434 c 0.07529,-0.21217 0.191639,-0.37986 0.349057,-0.50305 0.157418,-0.1232 0.307992,-0.1848 0.451721,-0.1848 0.150574,0 0.270349,0.0479 0.359324,0.14373 0.09582,0.0958 0.143729,0.22244 0.143729,0.37986 0,3.70411 -0.0308,0.32167 -0.0924,0.49278 l -0.780245,2.27914 c -0.431188,1.34147 -1.098503,2.66242 -2.001945,3.96283 0.78709,0.0821 1.488626,0.22243 2.104609,0.42092 l -0.08213,0.57492 c -0.944507,-0.19164 -1.779507,-0.30457 -2.504998,-0.3388 -0.663893,0.85553 -1.344896,1.53654 -2.04301,2.04301 -0.69127,0.51332 -1.296987,0.76998 -1.81715,0.76998 -0.513319,0 -0.896598,-0.10608 -1.149835,-0.31825 -0.260082,-0.20533 -0.390123,-0.48937 -0.390123,-0.85211 0,-0.36275 0.136885,-0.69469 0.410656,-0.99584 0.27377,-0.29431 0.639938,-0.53386 1.098503,-0.71865 0.930819,-0.38328 1.998523,-0.6023 3.203112,-0.65705 0.09582,-0.10951 0.325102,-0.49278 0.687847,-1.14983 0.362746,-0.66389 0.557807,-1.08139 0.585184,-1.2525 -1.211433,1.02663 -2.279137,1.53995 -3.203112,1.53995 -0.376434,0 -0.650204,-0.12662 -0.82131,-0.37985 -0.171107,-0.26008 -0.25666,-0.57834 -0.25666,-0.95478 0,-0.37643 0.140307,-1.01979 0.420922,-1.93008 0.287459,-0.91713 0.431188,-1.43729 0.431188,-1.56049 0,-0.13004 -0.0308,-0.19506 -0.0924,-0.19506 -0.05475,0 -0.116351,0.0171 -0.184794,0.0513 -0.06844,0.0274 -0.136885,0.0753 -0.205328,0.14373 -0.0616,0.0616 -0.119776,0.1232 -0.174529,0.1848 -0.05475,0.0547 -0.116352,0.13344 -0.184795,0.23613 -0.0616,0.10266 -0.10951,0.18137 -0.143729,0.23612 -0.143729,0.22586 -0.236127,0.37643 -0.277192,0.45172 z m 2.966985,5.30772 c -0.554385,0.0342 -1.119036,0.13344 -1.693954,0.29773 -1.108769,0.31483 -1.663154,0.68442 -1.663154,1.10877 0,0.25324 0.157418,0.37986 0.472254,0.37986 0.314835,0 0.828154,-0.22928 1.539957,-0.68785 0.711803,-0.45172 1.160102,-0.81789 1.344897,-1.09851 z m -4.527476,-4.66093 0.523586,0.44145 c -0.314836,0.78709 -0.732336,1.43387 -1.252499,1.94035 -0.520163,0.50647 -1.040327,0.75971 -1.560491,0.75971 -0.520163,0 -0.893175,-0.16768 -1.119035,-0.50305 -0.219017,-0.33537 -0.328525,-0.75972 -0.328525,-1.27303 0,-0.51332 0.157418,-1.33805 0.472254,-2.4742 0.32168,-1.13615 0.670737,-2.22781 1.047171,-3.27498 1.019794,-2.79245 1.529691,-4.58565 1.529691,-5.37959 0,-0.45856 -0.147151,-0.68784 -0.441454,-0.68784 -1.170368,0 -2.628195,1.88559 -4.37348,5.65677 -0.704958,1.51943 -1.259343,2.79588 -1.663154,3.82937 -0.834999,2.16278 -1.33463,3.45292 -1.498892,3.87042 h -2.289404 l 0.944508,-2.46393 c 1.122458,-2.85405 1.947191,-5.5062 2.474198,-7.95645 0.205328,-0.93082 0.307992,-1.67684 0.307992,-2.23807 0,-0.85553 -0.225861,-1.2833 -0.677582,-1.2833 -0.451721,0 -0.961618,0.34564 -1.529691,1.03691 -0.568073,0.68443 -1.112192,1.54338 -1.632355,2.57686 -0.520163,1.03348 -1.040327,2.15252 -1.56049,3.35711 -0.520163,1.20459 -0.971884,2.32362 -1.355163,3.35711 -0.882909,2.40917 -1.338052,3.61376 -1.365429,3.61376 h -2.012211 l 1.149835,-3.21338 c 1.026638,-2.64873 1.652887,-4.7328 1.878748,-6.25222 0.109508,-0.70496 0.164262,-1.42361 0.164262,-2.15594 0,-0.73234 -0.188217,-1.3449 -0.564651,-1.83769 -0.376434,-0.49963 -0.893175,-0.74944 -1.550224,-0.74944 -0.657049,0 -1.225122,0.14031 -1.70422,0.42092 -0.472253,0.27377 -0.862376,0.62282 -1.170368,1.04717 -0.307991,0.42435 -0.568073,0.90002 -0.780245,1.42703 -0.403811,0.97873 -0.605716,1.9335 -0.605716,2.86432 0,1.99168 0.455143,3.74381 1.365429,5.25639 l -0.441455,0.32852 c -0.492787,-0.78709 -0.869221,-1.67 -1.129302,-2.64873 -0.253237,-0.98557 -0.379856,-1.84452 -0.379856,-2.57686 0,-0.73233 0.05475,-1.37911 0.164262,-1.94034 0.109508,-0.56807 0.290881,-1.13957 0.544118,-1.71449 0.253237,-0.57492 0.564651,-1.08482 0.934241,-1.52969 0.376434,-0.45172 0.855532,-0.81789 1.437294,-1.09851 0.588606,-0.28745 1.204589,-0.43118 1.847949,-0.43118 0.64336,0 1.184056,0.1232 1.622089,0.36959 0.444877,0.24639 0.793934,0.57834 1.047171,0.99584 0.499631,0.82131 0.749446,1.81714 0.749446,2.98751 0,1.17037 -0.366168,2.87459 -1.098503,5.11266 0.253237,-0.67073 0.438032,-1.13956 0.554385,-1.40649 0.123196,-0.26693 0.266925,-0.59545 0.431188,-0.98557 0.171106,-0.39013 0.304569,-0.6947 0.400389,-0.91371 0.09582,-0.22586 0.242971,-0.55096 0.441454,-0.97531 0.198483,-0.43119 0.36959,-0.78367 0.513319,-1.05744 0.150574,-0.28061 0.338791,-0.6194 0.564652,-1.01637 0.232705,-0.40381 0.444876,-0.73576 0.636515,-0.99584 0.191639,-0.26008 0.410656,-0.53385 0.657049,-0.82131 0.253237,-0.2943 0.496208,-0.527 0.728913,-0.69811 0.527008,-0.39697 1.036905,-0.59545 1.529691,-0.59545 1.163524,0 1.745286,0.78024 1.745286,2.34073 0,0.98557 -0.195061,2.20727 -0.585184,3.6651 -0.130041,0.48594 -0.311414,1.11561 -0.544119,1.88902 -0.22586,0.76655 -0.352479,1.20458 -0.379856,1.31409 0.301147,-0.55438 0.694692,-1.42018 1.180634,-2.59739 0.485943,-1.17721 0.913709,-2.10461 1.283298,-2.78219 0.36959,-0.67758 0.73918,-1.25592 1.10877,-1.73502 0.36959,-0.4791 0.811044,-0.87949 1.324363,-1.20117 0.520164,-0.32168 1.033483,-0.48252 1.539958,-0.48252 0.513319,0 0.91713,0.16426 1.211433,0.49279 0.301147,0.32853 0.451721,0.76656 0.451721,1.3141 0,0.54754 -0.09582,1.21485 -0.287458,2.00194 -0.191639,0.78025 -0.427766,1.55707 -0.708381,2.33047 -0.280615,0.7734 -0.561229,1.54338 -0.841843,2.30994 -0.69127,1.85479 -1.06086,3.29551 -1.10877,4.32214 0,0.43803 0.11293,0.65705 0.338791,0.65705 0.232705,0 0.506475,-0.19848 0.821311,-0.59545 0.314835,-0.39697 0.605716,-0.84526 0.872642,-1.34489 z m 1.560491,0.94069 -0.667315,-0.40039 c 0.342213,-0.59545 0.766556,-1.11903 1.273031,-1.57075 0.513319,-0.45172 0.971885,-0.67758 1.375696,-0.67758 0.657049,0 0.985573,0.2943 0.985573,0.8829 0,0.24639 -0.171107,0.84527 -0.51332,1.79662 -0.335368,0.95135 -0.503052,1.55365 -0.503052,1.80689 0,0.25323 0.01711,0.41749 0.05133,0.49278 0.03422,0.0684 0.109507,0.10267 0.22586,0.10267 0.622827,0 1.262765,-0.23271 1.919814,-0.69812 0.663893,-0.47225 1.095081,-0.99242 1.293564,-1.56049 l 0.718647,-2.09434 c 0.07529,-0.21217 0.191639,-0.37986 0.349057,-0.50305 0.157418,-0.1232 0.307992,-0.1848 0.451721,-0.1848 0.150574,0 0.270349,0.0479 0.359324,0.14373 0.09582,0.0958 0.143729,-1.20762 0.143729,0.37986 0,3.70411 -0.0308,0.32167 -0.0924,0.49278 l -0.780245,2.27914 c -0.431188,1.34147 -1.098503,2.66241 -2.001945,3.96282 0.78709,0.0821 1.488626,0.22244 2.104609,0.42093 l -0.08213,0.57491 c -0.944507,-0.19164 -1.779507,-0.30457 -2.504998,-0.33879 -0.663893,0.85553 -1.344896,1.53654 -2.04301,2.04301 -0.69127,0.51332 -1.296987,0.76998 -1.81715,0.76998 -0.513319,0 -0.896598,-0.10609 -1.149835,-0.31826 -0.260082,-0.20533 -0.390123,-0.48936 -0.390123,-0.85211 0,-0.36274 0.136885,-0.69468 0.410656,-0.99583 0.27377,-0.29431 0.639938,-0.53386 1.098503,-0.71865 0.930819,-0.38328 1.998523,-0.6023 3.203112,-0.65705 0.09582,-0.10951 0.325102,-0.49279 0.687847,-1.14984 0.362746,-0.66389 0.557807,-1.08138 0.585184,-1.25249 -1.211433,1.02663 -2.279137,1.53995 -3.203112,1.53995 -0.376434,0 -0.650204,-0.12662 -0.82131,-0.37985 -0.171107,-0.26009 -0.25666,-0.57835 -0.25666,-0.95478 0,-0.37643 0.140307,-1.01979 0.420922,-1.93008 0.287459,-0.91713 0.431188,-1.43729 0.431188,-1.56049 0,-0.13004 -0.0308,-0.19506 -0.0924,-0.19506 -0.05475,0 -0.116351,0.0171 -0.184794,0.0513 -0.06844,0.0274 -0.136885,0.0753 -0.205328,0.14373 -0.0616,0.0616 -0.119776,0.1232 -0.174529,0.1848 -0.05475,0.0547 -0.116352,0.13344 -0.184795,0.23612 -0.0616,0.10267 -0.10951,0.18138 -0.143729,0.23613 -0.143729,0.22586 -0.236127,0.37643 -0.277192,0.45172 z m 2.966985,5.30772 c -0.554385,0.0342 -1.119036,0.13344 -1.693954,0.29773 -1.108769,0.31483 -1.663154,0.68442 -1.663154,1.10877 0,0.25323 0.157418,0.37985 0.472254,0.37985 0.314835,0 0.828154,-0.22928 1.539957,-0.68784 0.711803,-0.45173 1.160102,-0.8179 1.344897,-1.09851 z m -4.527476,-4.66094 0.523586,0.44146 c -0.314836,0.78709 -0.732336,1.43387 -1.252499,1.94035 -0.520163,0.50647 -1.040327,0.75971 -1.560491,0.75971 -0.520163,0 -0.893175,-0.16768 -1.119035,-0.50305 -0.219017,-0.33537 -0.328525,-0.75972 -0.328525,-1.27304 0,-0.51332 0.157418,-1.33805 0.472254,-2.47419 0.32168,-1.13615 0.670737,-2.22781 1.047171,-3.27498 1.019794,-2.79246 1.529691,-4.58566 1.529691,-5.37959 0,-0.45856 -0.147151,-0.68784 -0.441454,-0.68784 -1.170368,0 -2.628195,1.88559 -4.37348,5.65677 -0.704958,1.51943 -1.259343,2.79588 -1.663154,3.82936 -0.834999,2.16279 -1.33463,3.45293 -1.498892,3.87043 h -2.289404 l 0.944508,-2.46393 c 1.122458,-2.85405 1.947191,-5.5062 2.474198,-7.95645 0.205328,-0.93082 0.307992,-1.67684 0.307992,-2.23807 0,-0.85553 -0.225861,-1.2833 -0.677582,-1.2833 -0.451721,0 -0.961618,0.34564 -1.529691,1.03691 -0.568073,0.68442 -1.112192,1.54337 -1.632355,2.57686 -0.520163,1.03348 -1.040327,2.15252 -1.56049,3.35711 -0.520163,1.20459 -0.971884,2.32362 -1.355163,3.3571 -0.882909,2.40918 -1.338052,3.61377 -1.365429,3.61377 h -2.012211 l 1.149835,-3.21338 c 1.026638,-2.64873 1.652887,-4.7328 1.878748,-6.25222 0.109508,-0.70496 0.164262,-1.42361 0.164262,-2.15595 0,-0.73233 -0.188217,-1.34489 -0.564651,-1.83768 -0.376434,-0.49963 -0.893175,-0.74944 -1.550224,-0.74944 -0.657049,0 -1.225122,0.14031 -1.70422,0.42092 -0.472253,0.27377 -0.862376,0.62282 -1.170368,1.04717 -0.307991,0.42434 -0.568073,0.90002 -0.780245,1.42703 -0.403811,0.97873 -0.605716,1.9335 -0.605716,2.86432 0,1.99167 0.455143,3.7438 1.365429,5.25639 l -0.441455,0.32852 c -0.492787,-0.78709 -0.869221,-1.67 -1.129302,-2.64873 -0.253237,-0.98557 -0.379856,-1.84453 -0.379856,-2.57686 0,-0.73233 0.05475,-1.37912 0.164262,-1.94035 0.109508,-0.56807 0.290881,-1.13957 0.544118,-1.71448 0.253237,-0.57492 0.564651,-1.08482 0.934241,-1.52969 0.376434,-0.45172 0.855532,-0.81789 1.437294,-1.09851 0.588606,-0.28745 1.204589,-0.43118 1.847949,-0.43118 0.64336,0 1.184056,0.1232 1.622089,0.36959 0.444877,0.24639 0.793934,0.57834 1.047171,0.99583 0.499631,0.82131 0.749446,1.81715 0.749446,2.98752 0,1.17037 -0.366168,2.87459 -1.098503,5.11266 0.253237,-0.67073 0.438032,-1.13956 0.554385,-1.40649 0.123196,-0.26693 0.266925,-0.59545 0.431188,-0.98558 0.171106,-0.39012 0.304569,-0.69469 0.400389,-0.9137 0.09582,-0.22586 0.242971,-0.55096 0.441454,-0.97531 0.198483,-0.43119 0.36959,-0.78367 0.513319,-1.05744 0.150574,-0.28061 0.338791,-0.6194 0.564652,-1.01637 0.232705,-0.40381 0.444876,-0.73576 0.636515,-0.99584 0.191639,-0.26008 0.410656,-0.53385 0.657049,-0.82131 0.253237,-0.2943 0.496208,-0.527 0.728913,-0.69811 0.527008,-0.39697 1.036905,-0.59545 1.529691,-0.59545 1.163524,0 1.745286,0.78024 1.745286,2.34073 0,0.98557 -0.195061,2.20727 -0.585184,3.6651 -0.130041,0.48594 -0.311414,1.11561 -0.544119,1.88901 -0.22586,0.76656 -0.352479,1.20459 -0.379856,1.3141 0.301147,-0.55439 0.694692,-1.42018 1.180634,-2.59739 0.485943,-1.17721 0.913709,-2.10461 1.283298,-2.78219 0.36959,-0.67759 0.73918,-1.25593 1.10877,-1.73502 0.36959,-0.4791 0.811044,-0.87949 1.324363,-1.20117 0.520164,-0.32168 1.033483,-0.48252 1.539958,-0.48252 0.513319,0 0.91713,0.16426 1.211433,0.49279 0.301147,0.32852 0.451721,0.76655 0.451721,1.31409 0,0.54755 -0.09582,1.21486 -0.287458,2.00195 -0.191639,0.78025 -0.427766,1.55707 -0.708381,2.33047 -0.280615,0.7734 -0.561229,1.54338 -0.841843,2.30993 -0.69127,1.8548 -1.06086,3.29552 -1.10877,4.32215 0,0.43803 0.11293,0.65705 0.338791,0.65705 0.232705,0 0.506475,-0.19848 0.821311,-0.59545 0.314835,-0.39697 0.605716,-0.84527 0.872642,-1.3449 z m 1.560491,1.46986 -0.667315,-0.40039 c 0.342213,-0.59545 0.766556,-1.11903 1.273031,-1.57076 0.513319,-0.45172 0.971885,-0.67758 1.375696,-0.67758 0.657049,0 0.985573,0.2943 0.985573,0.88291 0,0.24639 -0.171107,0.84527 -0.51332,1.79662 -0.335368,0.95135 -0.503052,1.55365 -0.503052,1.80688 0,0.25324 0.01711,0.4175 0.05133,0.49279 0.03422,0.0684 0.109507,0.10266 0.22586,0.10266 0.622827,0 1.262765,-0.2327 1.919814,-0.69811 0.663893,-0.47225 1.095081,-0.99242 1.293564,-1.56049 l 0.718647,-2.09434 c 0.07529,-0.21217 0.191639,-0.37986 0.349057,-0.50306 0.157418,-0.12319 0.307992,-0.18479 0.451721,-0.18479 0.150574,0 0.270349,0.0479 0.359324,0.14373 0.09582,0.0958 0.143729,-3.32426 0.143729,0.37985 0,3.17496 -0.0308,0.32168 -0.0924,0.49279 l -0.780245,2.27914 c -0.431188,1.34147 -1.098503,2.66241 -2.001945,3.96282 0.78709,0.0821 1.488626,0.22244 2.104609,0.42092 l -0.08213,0.57492 c -0.944507,-0.19164 -1.779507,-0.30457 -2.504998,-0.33879 -0.663893,0.85553 -1.344896,1.53654 -2.04301,2.04301 -0.69127,0.51332 -1.296987,0.76998 -1.81715,0.76998 -0.513319,0 -0.896598,-0.10609 -1.149835,-0.31826 -0.260082,-0.20533 -0.390123,-0.48936 -0.390123,-0.85211 0,-0.36275 0.136885,-0.69469 0.410656,-0.99584 0.27377,-0.2943 0.639938,-0.53385 1.098503,-0.71864 0.930819,-0.38328 1.998523,-0.6023 3.203112,-0.65705 0.09582,-0.10951 0.325102,-0.49279 0.687847,-1.14984 0.362746,-0.66389 0.557807,-1.08139 0.585184,-1.2525 -1.211433,1.02664 -2.279137,1.53996 -3.203112,1.53996 -0.376434,0 -0.650204,-0.12662 -0.82131,-0.37985 -0.171107,-0.26009 -0.25666,-0.57835 -0.25666,-0.95478 0,-0.37643 0.140307,-1.01979 0.420922,-1.93008 0.287459,-0.91713 0.431188,-1.43729 0.431188,-1.56049 0,-0.13004 -0.0308,-0.19506 -0.0924,-0.19506 -0.05475,0 -0.116351,0.0171 -0.184794,0.0513 -0.06844,0.0274 -0.136885,0.0753 -0.205328,0.14373 -0.0616,0.0616 -0.119776,0.1232 -0.174529,0.1848 -0.05475,0.0547 -0.116352,0.13344 -0.184795,0.23612 -0.0616,0.10267 -0.10951,0.18138 -0.143729,0.23613 -0.143729,0.22586 -0.236127,0.37643 -0.277192,0.45172 z m 2.966985,5.30772 c -0.554385,0.0342 -1.119036,0.13344 -1.693954,0.29773 -1.108769,0.31483 -1.663154,0.68442 -1.663154,1.10877 0,0.25323 0.157418,0.37985 0.472254,0.37985 0.314835,0 0.828154,-0.22928 1.539957,-0.68785 0.711803,-0.45172 1.160102,-0.81789 1.344897,-1.0985 z m -4.527476,-4.66094 0.523586,0.44146 c -0.314836,0.78709 -0.732336,1.43387 -1.252499,1.94034 -0.520163,0.50648 -1.040327,0.75972 -1.560491,0.75972 -0.520163,0 -0.893175,-0.16769 -1.119035,-0.50306 -0.219017,-0.33537 -0.328525,-0.75971 -0.328525,-1.27303 0,-0.51332 0.157418,-1.33805 0.472254,-2.4742 0.32168,-1.13615 0.670737,-2.2278 1.047171,-3.27497 1.019794,-2.79246 1.529691,-4.58566 1.529691,-5.37959 0,-0.45857 -0.147151,-0.68785 -0.441454,-0.68785 -1.170368,0 -2.628195,1.88559 -4.37348,5.65678 -0.704958,1.51943 -1.259343,2.79588 -1.663154,3.82936 -0.834999,2.16279 -1.33463,3.45293 -1.498892,3.87043 h -2.289404 l 0.944508,-2.46393 c 1.122458,-2.85405 1.947191,-5.5062 2.474198,-7.95645 0.205328,-0.93082 0.307992,-1.67684 0.307992,-2.23807 0,-0.85553 -0.225861,-1.2833 -0.677582,-1.2833 -0.451721,0 -0.961618,0.34563 -1.529691,1.0369 -0.568073,0.68443 -1.112192,1.54338 -1.632355,2.57687 -0.520163,1.03348 -1.040327,2.15251 -1.56049,3.3571 -0.520163,1.20459 -0.971884,2.32363 -1.355163,3.35711 -0.882909,2.40918 -1.338052,3.61377 -1.365429,3.61377 h -2.012211 l 1.149835,-3.21338 c 1.026638,-2.64873 1.652887,-4.7328 1.878748,-6.25223 0.109508,-0.70495 0.164262,-1.4236 0.164262,-2.15594 0,-0.73233 -0.188217,-1.34489 -0.564651,-1.83768 -0.376434,-0.49963 -0.893175,-0.74945 -1.550224,-0.74945 -0.657049,0 -1.225122,0.14031 -1.70422,0.42093 -0.472253,0.27377 -0.862376,0.62282 -1.170368,1.04717 -0.307991,0.42434 -0.568073,0.90001 -0.780245,1.42702 -0.403811,0.97873 -0.605716,1.93351 -0.605716,2.86433 0,1.99167 0.455143,3.7438 1.365429,5.25638 l -0.441455,0.32853 c -0.492787,-0.78709 -0.869221,-1.67 -1.129302,-2.64873 -0.253237,-0.98557 -0.379856,-1.84453 -0.379856,-2.57686 0,-0.73233 0.05475,-1.37912 0.164262,-1.94035 0.109508,-0.56807 0.290881,-1.13957 0.544118,-1.71448 0.253237,-0.57492 0.564651,-1.08482 0.934241,-1.5297 0.376434,-0.45172 0.855532,-0.81789 1.437294,-1.0985 0.588606,-0.28746 1.204589,-0.43119 1.847949,-0.43119 0.64336,0 1.184056,0.1232 1.622089,0.36959 0.444877,0.24639 0.793934,0.57834 1.047171,0.99584 0.499631,0.82131 0.749446,1.81715 0.749446,2.98752 0,1.17037 -0.366168,2.87459 -1.098503,5.11266 0.253237,-0.67074 0.438032,-1.13957 0.554385,-1.40649 0.123196,-0.26693 0.266925,-0.59545 0.431188,-0.98558 0.171106,-0.39012 0.304569,-0.69469 0.400389,-0.91371 0.09582,-0.22586 0.242971,-0.55096 0.441454,-0.9753 0.198483,-0.43119 0.36959,-0.78367 0.513319,-1.05744 0.150574,-0.28061 0.338791,-0.6194 0.564652,-1.01637 0.232705,-0.40381 0.444876,-0.73576 0.636515,-0.99584 0.191639,-0.26008 0.410656,-0.53385 0.657049,-0.82131 0.253237,-0.29431 0.496208,-0.52701 0.728913,-0.69812 0.527008,-0.39697 1.036905,-0.59545 1.529691,-0.59545 1.163524,0 1.745286,0.78025 1.745286,2.34074 0,0.98557 -0.195061,2.20727 -0.585184,3.6651 -0.130041,0.48594 -0.311414,1.11561 -0.544119,1.88901 -0.22586,0.76656 -0.352479,1.20459 -0.379856,1.3141 0.301147,-0.55439 0.694692,-1.42019 1.180634,-2.5974 0.485943,-1.17721 0.913709,-2.1046 1.283298,-2.78219 0.36959,-0.67758 0.73918,-1.25592 1.10877,-1.73501 0.36959,-0.4791 0.811044,-0.87949 1.324363,-1.20117 0.520164,-0.32168 1.033483,-0.48252 1.539958,-0.48252 0.513319,0 0.91713,0.16426 1.211433,0.49279 0.301147,0.32852 0.451721,0.76655 0.451721,1.31409 0,0.54754 -0.09582,1.21486 -0.287458,2.00195 -0.191639,0.78025 -0.427766,1.55707 -0.708381,2.33047 -0.280615,0.7734 -0.561229,1.54338 -0.841843,2.30993 -0.69127,1.85479 -1.06086,3.29551 -1.10877,4.32215 0,0.43803 0.11293,0.65705 0.338791,0.65705 0.232705,0 0.506475,-0.19848 0.821311,-0.59545 0.314835,-0.39697 0.605716,-0.84527 0.872642,-1.3449 z m 1.560491,0.9407 -0.667315,-0.40039 c 0.342213,-0.59545 0.766556,-1.11904 1.273031,-1.57076 0.513319,-0.45172 0.971885,-0.67758 1.375696,-0.67758 0.657049,0 0.985573,0.2943 0.985573,0.88291 0,0.24639 -0.171107,0.84527 -0.51332,1.79662 -0.335368,0.95135 -0.503052,1.55365 -0.503052,1.80688 0,0.25324 0.01711,0.4175 0.05133,0.49279 0.03422,0.0684 0.109507,0.10266 0.22586,0.10266 0.622827,0 1.262765,-0.2327 1.919814,-0.69811 0.663893,-0.47225 1.095081,-0.99242 1.293564,-1.56049 l 0.718647,-2.09434 c 0.07529,-0.21217 0.191639,-0.37986 0.349057,-0.50306 0.157418,-0.12319 0.307992,-0.18479 0.451721,-0.18479 0.150574,0 0.270349,0.0479 0.359324,0.14373 0.09582,0.0958 0.143729,-3.32426 0.143729,0.37985 0,1.58748 -0.0308,0.32168 -0.0924,0.49279 l -0.780245,2.27914 c -0.431188,1.34147 -1.098503,2.66241 -2.001945,3.96282 0.78709,0.0821 1.488626,0.22244 2.104609,0.42092 l -0.08213,0.57492 c -0.944507,-0.19164 -1.779507,-0.30457 -2.504998,-0.33879 -0.663893,0.85553 -1.344896,1.53654 -2.04301,2.04301 -0.69127,0.51332 -1.296987,0.76998 -1.81715,0.76998 -0.513319,0 -0.896598,-0.10609 -1.149835,-0.31826 -0.260082,-0.20533 -0.390123,-0.48936 -0.390123,-0.85211 0,-0.36275 0.136885,-0.69469 0.410656,-0.99584 0.27377,-0.2943 0.639938,-0.53385 1.098503,-0.71864 0.930819,-0.38328 1.998523,-0.6023 3.203112,-0.65705 0.09582,-0.10951 0.325102,-0.49279 0.687847,-1.14984 0.362746,-0.66389 0.557807,-1.08139 0.585184,-1.2525 -1.211433,1.02664 -2.279137,1.53996 -3.203112,1.53996 -0.376434,0 -0.650204,-0.12662 -0.82131,-0.37986 -0.171107,-0.26008 -0.25666,-0.57834 -0.25666,-0.95477 0,-0.37643 0.140307,-1.01979 0.420922,-1.93008 0.287459,-0.91713 0.431188,-1.4373 0.431188,-1.56049 0,-0.13004 -0.0308,-0.19506 -0.0924,-0.19506 -0.05475,0 -0.116351,0.0171 -0.184794,0.0513 -0.06844,0.0274 -0.136885,0.0753 -0.205328,0.14373 -0.0616,0.0616 -0.119776,0.1232 -0.174529,0.18479 -0.05475,0.0547 -0.116352,0.13344 -0.184795,0.23613 -0.0616,0.10267 -0.10951,0.18138 -0.143729,0.23613 -0.143729,0.22586 -0.236127,0.37643 -0.277192,0.45172 z m 2.966985,5.30772 c -0.554385,0.0342 -1.119036,0.13344 -1.693954,0.29772 -1.108769,0.31484 -1.663154,0.68443 -1.663154,1.10877 0,0.25324 0.157418,0.37986 0.472254,0.37986 0.314835,0 0.828154,-0.22928 1.539957,-0.68785 0.711803,-0.45172 1.160102,-0.81789 1.344897,-1.0985 z m -4.527476,-4.66094 0.523586,0.44146 c -0.314836,0.78709 -0.732336,1.43387 -1.252499,1.94034 -0.520163,0.50647 -1.040327,0.75971 -1.560491,0.75971 -0.520163,0 -0.893175,-0.16768 -1.119035,-0.50305 -0.219017,-0.33537 -0.328525,-0.75971 -0.328525,-1.27303 0,-0.51332 0.157418,-1.33805 0.472254,-2.4742 0.32168,-1.13615 0.670737,-2.2278 1.047171,-3.27497 1.019794,-2.79246 1.529691,-4.58566 1.529691,-5.37959 0,-0.45857 -0.147151,-0.68785 -0.441454,-0.68785 -1.170368,0 -2.628195,1.88559 -4.37348,5.65678 -0.704958,1.51943 -1.259343,2.79588 -1.663154,3.82936 -0.834999,2.16279 -1.33463,3.45293 -1.498892,3.87043 h -2.289404 l 0.944508,-2.46393 c 1.122458,-2.85406 1.947191,-5.50621 2.474198,-7.95645 0.205328,-0.93082 0.307992,-1.67684 0.307992,-2.23807 0,-0.85553 -0.225861,-1.2833 -0.677582,-1.2833 -0.451721,0 -0.961618,0.34563 -1.529691,1.0369 -0.568073,0.68443 -1.112192,1.54338 -1.632355,2.57687 -0.520163,1.03348 -1.040327,2.15251 -1.56049,3.3571 -0.520163,1.20459 -0.971884,2.32363 -1.355163,3.35711 -0.882909,2.40918 -1.338052,3.61377 -1.365429,3.61377 h -2.012211 l 1.149835,-3.21338 c 1.026638,-2.64873 1.652887,-4.7328 1.878748,-6.25223 0.109508,-0.70496 0.164262,-1.42361 0.164262,-2.15594 0,-0.73233 -0.188217,-1.34489 -0.564651,-1.83768 -0.376434,-0.49963 -0.893175,-0.74945 -1.550224,-0.74945 -0.657049,0 -1.225122,0.14031 -1.70422,0.42092 -0.472253,0.27377 -0.862376,0.62283 -1.170368,1.04718 -0.307991,0.42434 -0.568073,0.90001 -0.780245,1.42702 -0.403811,0.97873 -0.605716,1.93351 -0.605716,2.86432 0,1.99168 0.455143,3.74381 1.365429,5.25639 l -0.441455,0.32853 c -0.492787,-0.78709 -0.869221,-1.67 -1.129302,-2.64873 -0.253237,-0.98557 -0.379856,-1.84453 -0.379856,-2.57686 0,-0.73234 0.05475,-1.37912 0.164262,-1.94035 0.109508,-0.56807 0.290881,-1.13957 0.544118,-1.71449 0.253237,-0.57491 0.564651,-1.08481 0.934241,-1.52969 0.376434,-0.45172 0.855532,-0.81789 1.437294,-1.0985 0.588606,-0.28746 1.204589,-0.43119 1.847949,-0.43119 0.64336,0 1.184056,0.1232 1.622089,0.36959 0.444877,0.24639 0.793934,0.57834 1.047171,0.99584 0.499631,0.82131 0.749446,1.81715 0.749446,2.98752 0,1.17037 -0.366168,2.87459 -1.098503,5.11266 0.253237,-0.67074 0.438032,-1.13957 0.554385,-1.4065 0.123196,-0.26693 0.266925,-0.59545 0.431188,-0.98557 0.171106,-0.39012 0.304569,-0.69469 0.400389,-0.91371 0.09582,-0.22586 0.242971,-0.55096 0.441454,-0.9753 0.198483,-0.43119 0.36959,-0.78367 0.513319,-1.05744 0.150574,-0.28061 0.338791,-0.6194 0.564652,-1.01637 0.232705,-0.40381 0.444876,-0.73576 0.636515,-0.99584 0.191639,-0.26009 0.410656,-0.53386 0.657049,-0.82131 0.253237,-0.29431 0.496208,-0.52701 0.728913,-0.69812 0.527008,-0.39697 1.036905,-0.59545 1.529691,-0.59545 1.163524,0 1.745286,0.78025 1.745286,2.34074 0,0.98557 -0.195061,2.20727 -0.585184,3.6651 -0.130041,0.48594 -0.311414,1.11561 -0.544119,1.88901 -0.22586,0.76656 -0.352479,1.20459 -0.379856,1.3141 0.301147,-0.55439 0.694692,-1.42019 1.180634,-2.5974 0.485943,-1.17721 0.913709,-2.1046 1.283298,-2.78219 0.36959,-0.67758 0.73918,-1.25592 1.10877,-1.73502 0.36959,-0.47909 0.811044,-0.87948 1.324363,-1.20116 0.520164,-0.32168 1.033483,-0.48252 1.539958,-0.48252 0.513319,0 0.91713,0.16426 1.211433,0.49278 0.301147,0.32853 0.451721,0.76656 0.451721,1.3141 0,0.54754 -0.09582,1.21486 -0.287458,2.00195 -0.191639,0.78024 -0.427766,1.55706 -0.708381,2.33047 -0.280615,0.7734 -0.561229,1.54338 -0.841843,2.30993 -0.69127,1.85479 -1.06086,3.29551 -1.10877,4.32215 0,0.43803 0.11293,0.65705 0.338791,0.65705 0.232705,0 0.506475,-0.19848 0.821311,-0.59545 0.314835,-0.39697 0.605716,-0.84527 0.872642,-1.3449 z m 1.560491,0.9407 -0.667315,-0.40039 c 0.342213,-0.59545 0.766556,-1.11904 1.273031,-1.57076 0.513319,-0.45172 0.971885,-0.67758 1.375696,-0.67758 0.657049,0 0.985573,0.2943 0.985573,0.88291 0,0.24639 -0.171107,0.84527 -0.51332,1.79662 -0.335368,0.95135 -0.503052,1.55364 -0.503052,1.80688 0,0.25324 0.01711,0.4175 0.05133,0.49279 0.03422,0.0684 0.109507,0.10266 0.22586,0.10266 0.622827,0 1.262765,-0.2327 1.919814,-0.69811 0.663893,-0.47225 1.095081,-0.99242 1.293564,-1.56049 l 0.718647,-2.09435 c 0.07529,-0.21217 0.191639,-0.37985 0.349057,-0.50305 0.157418,-0.12319 0.307992,-0.18479 0.451721,-0.18479 0.150574,0 0.270349,0.0479 0.359324,0.14373 0.09582,0.0958 0.143729,-2.79511 0.143729,0.37985 0,0.15742 -0.0308,0.32168 -0.0924,0.49279 l -0.780245,2.27914 c -0.431188,1.34147 -1.098503,2.66241 -2.001945,3.96282 0.78709,0.0821 1.488626,0.22244 2.104609,0.42092 l -0.08213,0.57492 c -0.944507,-0.19164 -1.779507,-0.30457 -2.504998,-0.33879 -0.663893,0.85553 -1.344896,1.53654 -2.04301,2.04301 -0.69127,0.51332 -1.296987,0.76998 -1.81715,0.76998 -0.513319,0 -0.896598,-0.10609 -1.149835,-0.31826 -0.260082,-0.20533 -0.390123,-0.48936 -0.390123,-0.85211 0,-0.36275 0.136885,-0.69469 0.410656,-0.99584 0.27377,-0.2943 0.639938,-0.53385 1.098503,-0.71865 0.930819,-0.38327 1.998523,-0.60229 3.203112,-0.65704 0.09582,-0.10951 0.325102,-0.49279 0.687847,-1.14984 0.362746,-0.66389 0.557807,-1.08139 0.585184,-1.2525 -1.211433,1.02664 -2.279137,1.53996 -3.203112,1.53996 -0.376434,0 -0.650204,-0.12662 -0.82131,-0.37986 -0.171107,-0.26008 -0.25666,-0.57834 -0.25666,-0.95477 0,-0.37643 0.140307,-1.01979 0.420922,-1.93008 0.287459,-0.91713 0.431188,-1.4373 0.431188,-1.56049 0,-0.13004 -0.0308,-0.19506 -0.0924,-0.19506 -0.05475,0 -0.116351,0.0171 -0.184794,0.0513 -0.06844,0.0274 -0.136885,0.0753 -0.205328,0.14373 -0.0616,0.0616 -0.119776,0.1232 -0.174529,0.18479 -0.05475,0.0547 -0.116352,0.13344 -0.184795,0.23613 -0.0616,0.10267 -0.10951,0.18138 -0.143729,0.23613 -0.143729,0.22586 -0.236127,0.37643 -0.277192,0.45172 z m 2.966985,5.30772 c -0.554385,0.0342 -1.119036,0.13344 -1.693954,0.29772 -1.108769,0.31484 -1.663154,0.68443 -1.663154,1.10877 0,0.25324 0.157418,0.37986 0.472254,0.37986 0.314835,0 0.828154,-0.22928 1.539957,-0.68785 0.711803,-0.45172 1.160102,-0.81789 1.344897,-1.0985 z m -4.527476,-4.66094 0.523586,0.44145 c -0.314836,0.78709 -0.732336,1.43388 -1.252499,1.94035 -0.520163,0.50647 -1.040327,0.75971 -1.560491,0.75971 -0.520163,0 -0.893175,-0.16768 -1.119035,-0.50305 -0.219017,-0.33537 -0.328525,-0.75971 -0.328525,-1.27303 0,-0.51332 0.157418,-1.33805 0.472254,-2.4742 0.32168,-1.13615 0.670737,-2.22781 1.047171,-3.27498 1.019794,-2.79245 1.529691,-4.58565 1.529691,-5.37958 0,-0.45857 -0.147151,-0.68785 -0.441454,-0.68785 -1.170368,0 -2.628195,1.88559 -4.37348,5.65678 -0.704958,1.51943 -1.259343,2.79588 -1.663154,3.82936 -0.834999,2.16279 -1.33463,3.45293 -1.498892,3.87043 h -2.289404 l 0.944508,-2.46394 c 1.122458,-2.85405 1.947191,-5.5062 2.474198,-7.95644 0.205328,-0.93082 0.307992,-1.67684 0.307992,-2.23807 0,-0.85553 -0.225861,-1.2833 -0.677582,-1.2833 -0.451721,0 -0.961618,0.34563 -1.529691,1.0369 -0.568073,0.68443 -1.112192,1.54338 -1.632355,2.57686 -0.520163,1.03349 -1.040327,2.15252 -1.56049,3.35711 -0.520163,1.20459 -0.971884,2.32363 -1.355163,3.35711 -0.882909,2.40918 -1.338052,3.61377 -1.365429,3.61377 h -2.012211 l 1.149835,-3.21338 c 1.026638,-2.64873 1.652887,-4.7328 1.878748,-6.25223 0.109508,-0.70496 0.164262,-1.42361 0.164262,-2.15594 0,-0.73233 -0.188217,-1.34489 -0.564651,-1.83768 -0.376434,-0.49963 -0.893175,-0.74945 -1.550224,-0.74945 -0.657049,0 -1.225122,0.14031 -1.70422,0.42092 -0.472253,0.27377 -0.862376,0.62283 -1.170368,1.04717 -0.307991,0.42435 -0.568073,0.90002 -0.780245,1.42703 -0.403811,0.97873 -0.605716,1.9335 -0.605716,2.86432 0,1.99168 0.455143,3.74381 1.365429,5.25639 l -0.441455,0.32853 c -0.492787,-0.78709 -0.869221,-1.67 -1.129302,-2.64873 -0.253237,-0.98557 -0.379856,-1.84453 -0.379856,-2.57686 0,-0.73234 0.05475,-1.37912 0.164262,-1.94035 0.109508,-0.56807 0.290881,-1.13957 0.544118,-1.71449 0.253237,-0.57491 0.564651,-1.08481 0.934241,-1.52969 0.376434,-0.45172 0.855532,-0.81789 1.437294,-1.0985 0.588606,-0.28746 1.204589,-0.43119 1.847949,-0.43119 0.64336,0 1.184056,0.1232 1.622089,0.36959 0.444877,0.24639 0.793934,0.57834 1.047171,0.99584 0.499631,0.82131 0.749446,1.81715 0.749446,2.98752 0,1.17037 -0.366168,2.87459 -1.098503,5.11266 0.253237,-0.67074 0.438032,-1.13957 0.554385,-1.4065 0.123196,-0.26693 0.266925,-0.59545 0.431188,-0.98557 0.171106,-0.39012 0.304569,-0.69469 0.400389,-0.91371 0.09582,-0.22586 0.242971,-0.55096 0.441454,-0.97531 0.198483,-0.43119 0.36959,-0.78366 0.513319,-1.05743 0.150574,-0.28061 0.338791,-0.6194 0.564652,-1.01637 0.232705,-0.40381 0.444876,-0.73576 0.636515,-0.99584 0.191639,-0.26009 0.410656,-0.53386 0.657049,-0.82131 0.253237,-0.29431 0.496208,-0.52701 0.728913,-0.69812 0.527008,-0.39697 1.036905,-0.59545 1.529691,-0.59545 1.163524,0 1.745286,0.78025 1.745286,2.34074 0,0.98557 -0.195061,2.20727 -0.585184,3.6651 -0.130041,0.48594 -0.311414,1.11561 -0.544119,1.88901 -0.22586,0.76656 -0.352479,1.20459 -0.379856,1.3141 0.301147,-0.55439 0.694692,-1.42019 1.180634,-2.5974 0.485943,-1.17721 0.913709,-2.10461 1.283298,-2.78219 0.36959,-0.67758 0.73918,-1.25592 1.10877,-1.73502 0.36959,-0.47909 0.811044,-0.87948 1.324363,-1.20116 0.520164,-0.32168 1.033483,-0.48252 1.539958,-0.48252 0.513319,0 0.91713,0.16426 1.211433,0.49278 0.301147,0.32853 0.451721,0.76656 0.451721,1.3141 0,0.54754 -0.09582,1.21485 -0.287458,2.00194 -0.191639,0.78025 -0.427766,1.55707 -0.708381,2.33047 -0.280615,0.77341 -0.561229,1.54339 -0.841843,2.30994 -0.69127,1.85479 -1.06086,3.29551 -1.10877,4.32215 0,0.43803 0.11293,0.65705 0.338791,0.65705 0.232705,0 0.506475,-0.19848 0.821311,-0.59545 0.314835,-0.39697 0.605716,-0.84527 0.872642,-1.3449 z"
           style="font-size:21.02555466px;fill:#d47614;fill-opacity:1;stroke:#d47614;stroke-width:1.5;stroke-miterlimit:4;stroke-dasharray:none;stroke-opacity:1"
           id="path1711" />
      </g>
    </g>
    <text
       id="text825-6-9"
       y="242.62663"
       x="59.778042"
       style="font-style:normal;font-variant:normal;font-weight:normal;font-stretch:normal;font-size:21.0379467px;line-height:125%;font-family:Niconne;-inkscape-font-specification:Niconne;fill:#fcca09;fill-opacity:1;stroke:#a74e0a;stroke-width:0.5;stroke-linecap:round;stroke-miterlimit:4;stroke-dasharray:none;stroke-opacity:1"
       xml:space="preserve"><tspan
         style="font-size:21.02555656px;stroke:#fcca09;stroke-width:0.5;stroke-miterlimit:4;stroke-dasharray:none;stroke-opacity:1"
         y="242.62663"
         x="59.778042"
         id="tspan823-1-2">My</tspan></text>
    <text
       id="text829"
       y="263.12741"
       x="80.856522"
       style="font-style:normal;font-variant:normal;font-weight:normal;font-stretch:normal;font-size:50.79999924px;line-height:125%;font-family:Niconne;-inkscape-font-specification:Niconne;fill:#fcca09;fill-opacity:1;stroke:#a74e0a;stroke-width:1;stroke-linecap:round;stroke-miterlimit:4;stroke-dasharray:none;stroke-opacity:1"
       xml:space="preserve"><tspan
         style="stroke:#fcca09;stroke-width:1;stroke-opacity:1"
         y="263.12741"
         x="80.856522"
         id="tspan827">Ride</tspan></text>
  </g>
</svg>
